^C:\GAMES\DBZ\SERVER\MASTACORE\AUTHSERVER\STDAFX.CPP
C:\GAMES\DBZ\SERVER\MASTACORE\AUTHSERVER\DEBUG\AUTHSERVER.PCH
C:\GAMES\DBZ\SERVER\MASTACORE\AUTHSERVER\DEBUG\VC120.PDB
C:\GAMES\DBZ\SERVER\MASTACORE\AUTHSERVER\DEBUG\VC120.IDB
C:\GAMES\DBZ\SERVER\MASTACORE\AUTHSERVER\DEBUG\STDAFX.OBJ
^C:\GAMES\DBZ\SERVER\MASTACORE\AUTHSERVER\AUTHMAIN.CPP|C:\GAMES\DBZ\SERVER\MASTACORE\AUTHSERVER\AUTHSERVER.CPP|C:\GAMES\DBZ\SERVER\MASTACORE\AUTHSERVER\AUTHSESSION.CPP|C:\GAMES\DBZ\SERVER\MASTACORE\AUTHSERVER\AUTHSESSIONFACTORY.CPP
C:\GAMES\DBZ\SERVER\MASTACORE\AUTHSERVER\DEBUG\VC120.PDB
C:\GAMES\DBZ\SERVER\MASTACORE\AUTHSERVER\DEBUG\VC120.IDB
C:\GAMES\DBZ\SERVER\MASTACORE\AUTHSERVER\DEBUG\AUTHMAIN.OBJ
C:\GAMES\DBZ\SERVER\MASTACORE\AUTHSERVER\DEBUG\AUTHSERVER.OBJ
C:\GAMES\DBZ\SERVER\MASTACORE\AUTHSERVER\DEBUG\AUTHSESSION.OBJ
C:\GAMES\DBZ\SERVER\MASTACORE\AUTHSERVER\DEBUG\AUTHSESSIONFACTORY.OBJ
^C:\GAMES\DBZ\SERVER\MASTACORE\AUTHSERVER\AUTHMAIN.CPP
C:\GAMES\DBZ\SERVER\MASTACORE\AUTHSERVER\DEBUG\VC120.PDB
^C:\GAMES\DBZ\SERVER\MASTACORE\AUTHSERVER\AUTHSERVER.CPP
C:\GAMES\DBZ\SERVER\MASTACORE\AUTHSERVER\DEBUG\VC120.PDB
C:\GAMES\DBZ\SERVER\MASTACORE\AUTHSERVER\DEBUG\VC120.IDB
C:\GAMES\DBZ\SERVER\MASTACORE\AUTHSERVER\DEBUG\AUTHSERVER.OBJ
^C:\GAMES\DBZ\SERVER\MASTACORE\AUTHSERVER\AUTHSESSIONFACTORY.CPP
C:\GAMES\DBZ\SERVER\MASTACORE\AUTHSERVER\DEBUG\VC120.PDB
C:\GAMES\DBZ\SERVER\MASTACORE\AUTHSERVER\DEBUG\VC120.IDB
C:\GAMES\DBZ\SERVER\MASTACORE\AUTHSERVER\DEBUG\AUTHSESSIONFACTORY.OBJ
^C:\GAMES\DBZ\SERVER\MASTACORE\AUTHSERVER\AUTHSESSION.CPP
C:\GAMES\DBZ\SERVER\MASTACORE\AUTHSERVER\DEBUG\VC120.PDB
^C:\GAMES\DBZ\SERVER\MASTACORE\AUTHSERVER\AUTHSERVER.CPP|C:\GAMES\DBZ\SERVER\MASTACORE\AUTHSERVER\AUTHSESSIONFACTORY.CPP
C:\GAMES\DBZ\SERVER\MASTACORE\AUTHSERVER\DEBUG\VC120.PDB
C:\GAMES\DBZ\SERVER\MASTACORE\AUTHSERVER\DEBUG\VC120.IDB
C:\GAMES\DBZ\SERVER\MASTACORE\AUTHSERVER\DEBUG\AUTHSERVER.OBJ
C:\GAMES\DBZ\SERVER\MASTACORE\AUTHSERVER\DEBUG\AUTHSESSIONFACTORY.OBJ
