^C:\GAMES\DBZ\CLIENT\DBOCLIENT\DBOSHARED\NTLSHARED2\DEBUG\NTLSHARED.LIB|C:\GAMES\DBZ\CLIENT\DBOCLIENT\NTLLIB\SERVER\NTLNETWORK\DEBUG\NTLNETWORK.LIB|C:\GAMES\DBZ\CLIENT\DBOCLIENT\NTLLIB\SERVER\NTLSFX\DEBUG\NTLSFX.LIB|C:\GAMES\DBZ\CLIENT\DBOCLIENT\NTLLIB\SERVER\NTLSYSTEM\DEBUG\NTLSYSTEM.LIB|C:\GAMES\DBZ\CLIENT\DBOCLIENT\NTLLIB\SERVER\NTLTHREAD\DEBUG\NTLTHREAD.LIB|C:\GAMES\DBZ\CLIENT\DBOCLIENT\NTLLIB\SHARED\UTIL\DEBUG\UTIL.LIB|C:\GAMES\DBZ\SERVER\MASTACORE\AUTHSERVER\DEBUG\AUTHMAIN.OBJ|C:\GAMES\DBZ\SERVER\MASTACORE\AUTHSERVER\DEBUG\AUTHSERVER.OBJ|C:\GAMES\DBZ\SERVER\MASTACORE\AUTHSERVER\DEBUG\AUTHSESSION.OBJ|C:\GAMES\DBZ\SERVER\MASTACORE\AUTHSERVER\DEBUG\AUTHSESSIONFACTORY.OBJ|C:\GAMES\DBZ\SERVER\MASTACORE\AUTHSERVER\DEBUG\STDAFX.OBJ
C:\PROGRAM FILES (X86)\WINDOWS KITS\8.1\LIB\WINV6.3\UM\X86\WS2_32.LIB
C:\PROGRAM FILES (X86)\WINDOWS KITS\8.1\LIB\WINV6.3\UM\X86\KERNEL32.LIB
C:\PROGRAM FILES (X86)\WINDOWS KITS\8.1\LIB\WINV6.3\UM\X86\USER32.LIB
C:\PROGRAM FILES (X86)\WINDOWS KITS\8.1\LIB\WINV6.3\UM\X86\GDI32.LIB
C:\PROGRAM FILES (X86)\WINDOWS KITS\8.1\LIB\WINV6.3\UM\X86\WINSPOOL.LIB
C:\PROGRAM FILES (X86)\WINDOWS KITS\8.1\LIB\WINV6.3\UM\X86\COMDLG32.LIB
C:\PROGRAM FILES (X86)\WINDOWS KITS\8.1\LIB\WINV6.3\UM\X86\ADVAPI32.LIB
C:\PROGRAM FILES (X86)\WINDOWS KITS\8.1\LIB\WINV6.3\UM\X86\SHELL32.LIB
C:\PROGRAM FILES (X86)\WINDOWS KITS\8.1\LIB\WINV6.3\UM\X86\OLE32.LIB
C:\PROGRAM FILES (X86)\WINDOWS KITS\8.1\LIB\WINV6.3\UM\X86\OLEAUT32.LIB
C:\PROGRAM FILES (X86)\WINDOWS KITS\8.1\LIB\WINV6.3\UM\X86\UUID.LIB
C:\PROGRAM FILES (X86)\WINDOWS KITS\8.1\LIB\WINV6.3\UM\X86\ODBC32.LIB
C:\PROGRAM FILES (X86)\WINDOWS KITS\8.1\LIB\WINV6.3\UM\X86\ODBCCP32.LIB
C:\GAMES\DBZ\SERVER\MASTACORE\AUTHSERVER\DEBUG\AUTHMAIN.OBJ
C:\GAMES\DBZ\SERVER\MASTACORE\AUTHSERVER\DEBUG\AUTHSERVER.OBJ
C:\GAMES\DBZ\SERVER\MASTACORE\AUTHSERVER\DEBUG\AUTHSESSIONFACTORY.OBJ
C:\GAMES\DBZ\SERVER\MASTACORE\AUTHSERVER\DEBUG\AUTHSESSION.OBJ
C:\GAMES\DBZ\SERVER\MASTACORE\AUTHSERVER\DEBUG\STDAFX.OBJ
C:\GAMES\DBZ\CLIENT\DBOCLIENT\DBOSHARED\NTLSHARED2\DEBUG\NTLSHARED.LIB
C:\GAMES\DBZ\CLIENT\DBOCLIENT\NTLLIB\SERVER\NTLSYSTEM\DEBUG\NTLSYSTEM.LIB
C:\GAMES\DBZ\CLIENT\DBOCLIENT\NTLLIB\SERVER\NTLTHREAD\DEBUG\NTLTHREAD.LIB
C:\GAMES\DBZ\CLIENT\DBOCLIENT\NTLLIB\SERVER\NTLNETWORK\DEBUG\NTLNETWORK.LIB
C:\GAMES\DBZ\CLIENT\DBOCLIENT\NTLLIB\SERVER\NTLSFX\DEBUG\NTLSFX.LIB
C:\GAMES\DBZ\CLIENT\DBOCLIENT\NTLLIB\SHARED\UTIL\DEBUG\UTIL.LIB
C:\WINDOWS\SYSTEM32\TZRES.DLL
C:\WINDOWS\GLOBALIZATION\SORTING\SORTDEFAULT.NLS
C:\PROGRAM FILES (X86)\MICROSOFT VISUAL STUDIO 12.0\VC\LIB\LIBCPMTD.LIB
C:\PROGRAM FILES (X86)\MICROSOFT VISUAL STUDIO 12.0\VC\LIB\LIBCMTD.LIB
C:\PROGRAM FILES (X86)\MICROSOFT VISUAL STUDIO 12.0\VC\LIB\OLDNAMES.LIB
C:\PROGRAM FILES (X86)\WINDOWS KITS\8.1\LIB\WINV6.3\UM\X86\PSAPI.LIB
C:\PROGRAM FILES (X86)\WINDOWS KITS\8.1\LIB\WINV6.3\UM\X86\PDH.LIB
