^G:\DBZ\SERVER\MASTACORE\BOTMASTER\STDAFX.CPP
G:\DBZ\SERVER\MASTACORE\BOTMASTER\DEBUG\BOTMASTER.PCH
G:\DBZ\SERVER\MASTACORE\BOTMASTER\DEBUG\VC120.PDB
G:\DBZ\SERVER\MASTACORE\BOTMASTER\DEBUG\VC120.IDB
G:\DBZ\SERVER\MASTACORE\BOTMASTER\DEBUG\STDAFX.OBJ
^G:\DBZ\SERVER\MASTACORE\BOTMASTER\BOTMASTER.CPP|G:\DBZ\SERVER\MASTACORE\BOTMASTER\BOTSERVER.CPP|G:\DBZ\SERVER\MASTACORE\BOTMASTER\BOTSESSIONFACTORY.CPP|G:\DBZ\SERVER\MASTACORE\BOTMASTER\CLIENTSESSION.CPP
G:\DBZ\SERVER\MASTACORE\BOTMASTER\DEBUG\VC120.PDB
G:\DBZ\SERVER\MASTACORE\BOTMASTER\DEBUG\VC120.IDB
G:\DBZ\SERVER\MASTACORE\BOTMASTER\DEBUG\BOTMASTER.OBJ
G:\DBZ\SERVER\MASTACORE\BOTMASTER\DEBUG\BOTSERVER.OBJ
G:\DBZ\SERVER\MASTACORE\BOTMASTER\DEBUG\BOTSESSIONFACTORY.OBJ
G:\DBZ\SERVER\MASTACORE\BOTMASTER\DEBUG\CLIENTSESSION.OBJ
^G:\DBZ\SERVER\MASTACORE\BOTMASTER\BOTMASTER.CPP
G:\DBZ\SERVER\MASTACORE\BOTMASTER\DEBUG\VC120.PDB
G:\DBZ\SERVER\MASTACORE\BOTMASTER\DEBUG\VC120.IDB
G:\DBZ\SERVER\MASTACORE\BOTMASTER\DEBUG\BOTMASTER.OBJ
^G:\DBZ\SERVER\MASTACORE\BOTMASTER\BOTSERVER.CPP
G:\DBZ\SERVER\MASTACORE\BOTMASTER\DEBUG\VC120.PDB
^G:\DBZ\SERVER\MASTACORE\BOTMASTER\BOTSESSIONFACTORY.CPP
G:\DBZ\SERVER\MASTACORE\BOTMASTER\DEBUG\VC120.PDB
^G:\DBZ\SERVER\MASTACORE\BOTMASTER\CLIENTSESSION.CPP
G:\DBZ\SERVER\MASTACORE\BOTMASTER\DEBUG\VC120.PDB
^G:\DBZ\SERVER\MASTACORE\BOTMASTER\BOTMASTER.CPP|G:\DBZ\SERVER\MASTACORE\BOTMASTER\BOTSERVER.CPP
G:\DBZ\SERVER\MASTACORE\BOTMASTER\DEBUG\VC120.PDB
G:\DBZ\SERVER\MASTACORE\BOTMASTER\DEBUG\VC120.IDB
G:\DBZ\SERVER\MASTACORE\BOTMASTER\DEBUG\BOTMASTER.OBJ
G:\DBZ\SERVER\MASTACORE\BOTMASTER\DEBUG\BOTSERVER.OBJ
