^G:\DBZ\SERVER\MASTACORE\BOTMASTER\STDAFX.CPP
C:\PROGRAM FILES (X86)\MICROSOFT VISUAL STUDIO 12.0\VC\BIN\1033\CLUI.DLL
C:\WINDOWS\GLOBALIZATION\SORTING\SORTDEFAULT.NLS
C:\WINDOWS\SYSTEM32\RSAENH.DLL
C:\WINDOWS\SYSTEM32\TZRES.DLL
G:\DBZ\SERVER\MASTACORE\BOTMASTER\STDAFX.H
G:\DBZ\SERVER\MASTACORE\BOTMASTER\TARGETVER.H
C:\PROGRAM FILES (X86)\WINDOWS KITS\8.1\INCLUDE\SHARED\SDKDDKVER.H
C:\PROGRAM FILES (X86)\WINDOWS KITS\8.1\INCLUDE\UM\WINSOCK2.H
C:\PROGRAM FILES (X86)\WINDOWS KITS\8.1\INCLUDE\SHARED\WINAPIFAMILY.H
C:\PROGRAM FILES (X86)\WINDOWS KITS\8.1\INCLUDE\UM\WINDOWS.H
C:\PROGRAM FILES (X86)\MICROSOFT VISUAL STUDIO 12.0\VC\INCLUDE\EXCPT.H
C:\PROGRAM FILES (X86)\MICROSOFT VISUAL STUDIO 12.0\VC\INCLUDE\CRTDEFS.H
C:\PROGRAM FILES (X86)\MICROSOFT VISUAL STUDIO 12.0\VC\INCLUDE\SAL.H
C:\PROGRAM FILES (X86)\MICROSOFT VISUAL STUDIO 12.0\VC\INCLUDE\CONCURRENCYSAL.H
C:\PROGRAM FILES (X86)\MICROSOFT VISUAL STUDIO 12.0\VC\INCLUDE\VADEFS.H
C:\PROGRAM FILES (X86)\MICROSOFT VISUAL STUDIO 12.0\VC\INCLUDE\STDARG.H
C:\PROGRAM FILES (X86)\WINDOWS KITS\8.1\INCLUDE\SHARED\WINDEF.H
C:\PROGRAM FILES (X86)\WINDOWS KITS\8.1\INCLUDE\SHARED\MINWINDEF.H
C:\PROGRAM FILES (X86)\WINDOWS KITS\8.1\INCLUDE\SHARED\SPECSTRINGS.H
C:\PROGRAM FILES (X86)\WINDOWS KITS\8.1\INCLUDE\SHARED\SPECSTRINGS_STRICT.H
C:\PROGRAM FILES (X86)\WINDOWS KITS\8.1\INCLUDE\SHARED\SPECSTRINGS_UNDEF.H
C:\PROGRAM FILES (X86)\WINDOWS KITS\8.1\INCLUDE\SHARED\DRIVERSPECS.H
C:\PROGRAM FILES (X86)\WINDOWS KITS\8.1\INCLUDE\SHARED\SDV_DRIVERSPECS.H
C:\PROGRAM FILES (X86)\WINDOWS KITS\8.1\INCLUDE\UM\WINNT.H
C:\PROGRAM FILES (X86)\MICROSOFT VISUAL STUDIO 12.0\VC\INCLUDE\CTYPE.H
C:\PROGRAM FILES (X86)\WINDOWS KITS\8.1\INCLUDE\SHARED\KERNELSPECS.H
C:\PROGRAM FILES (X86)\WINDOWS KITS\8.1\INCLUDE\SHARED\BASETSD.H
C:\PROGRAM FILES (X86)\WINDOWS KITS\8.1\INCLUDE\SHARED\GUIDDEF.H
C:\PROGRAM FILES (X86)\MICROSOFT VISUAL STUDIO 12.0\VC\INCLUDE\STRING.H
C:\PROGRAM FILES (X86)\WINDOWS KITS\8.1\INCLUDE\SHARED\PSHPACK4.H
C:\PROGRAM FILES (X86)\WINDOWS KITS\8.1\INCLUDE\SHARED\POPPACK.H
C:\PROGRAM FILES (X86)\WINDOWS KITS\8.1\INCLUDE\SHARED\PSHPACK2.H
C:\PROGRAM FILES (X86)\WINDOWS KITS\8.1\INCLUDE\SHARED\PSHPACK8.H
C:\PROGRAM FILES (X86)\WINDOWS KITS\8.1\INCLUDE\SHARED\APISET.H
C:\PROGRAM FILES (X86)\WINDOWS KITS\8.1\INCLUDE\SHARED\KTMTYPES.H
C:\PROGRAM FILES (X86)\WINDOWS KITS\8.1\INCLUDE\UM\WINBASE.H
C:\PROGRAM FILES (X86)\WINDOWS KITS\8.1\INCLUDE\SHARED\APISETCCONV.H
C:\PROGRAM FILES (X86)\WINDOWS KITS\8.1\INCLUDE\UM\MINWINBASE.H
C:\PROGRAM FILES (X86)\WINDOWS KITS\8.1\INCLUDE\UM\PROCESSENV.H
C:\PROGRAM FILES (X86)\WINDOWS KITS\8.1\INCLUDE\UM\FILEAPI.H
C:\PROGRAM FILES (X86)\WINDOWS KITS\8.1\INCLUDE\UM\DEBUGAPI.H
C:\PROGRAM FILES (X86)\WINDOWS KITS\8.1\INCLUDE\UM\UTILAPISET.H
C:\PROGRAM FILES (X86)\WINDOWS KITS\8.1\INCLUDE\UM\HANDLEAPI.H
C:\PROGRAM FILES (X86)\WINDOWS KITS\8.1\INCLUDE\UM\ERRHANDLINGAPI.H
C:\PROGRAM FILES (X86)\WINDOWS KITS\8.1\INCLUDE\UM\FIBERSAPI.H
C:\PROGRAM FILES (X86)\WINDOWS KITS\8.1\INCLUDE\UM\NAMEDPIPEAPI.H
C:\PROGRAM FILES (X86)\WINDOWS KITS\8.1\INCLUDE\UM\PROFILEAPI.H
C:\PROGRAM FILES (X86)\WINDOWS KITS\8.1\INCLUDE\UM\HEAPAPI.H
C:\PROGRAM FILES (X86)\WINDOWS KITS\8.1\INCLUDE\UM\IOAPISET.H
C:\PROGRAM FILES (X86)\WINDOWS KITS\8.1\INCLUDE\UM\SYNCHAPI.H
C:\PROGRAM FILES (X86)\WINDOWS KITS\8.1\INCLUDE\UM\INTERLOCKEDAPI.H
C:\PROGRAM FILES (X86)\WINDOWS KITS\8.1\INCLUDE\UM\PROCESSTHREADSAPI.H
C:\PROGRAM FILES (X86)\WINDOWS KITS\8.1\INCLUDE\UM\SYSINFOAPI.H
C:\PROGRAM FILES (X86)\WINDOWS KITS\8.1\INCLUDE\UM\MEMORYAPI.H
C:\PROGRAM FILES (X86)\WINDOWS KITS\8.1\INCLUDE\UM\THREADPOOLLEGACYAPISET.H
C:\PROGRAM FILES (X86)\WINDOWS KITS\8.1\INCLUDE\UM\THREADPOOLAPISET.H
C:\PROGRAM FILES (X86)\WINDOWS KITS\8.1\INCLUDE\UM\BEMAPISET.H
C:\PROGRAM FILES (X86)\WINDOWS KITS\8.1\INCLUDE\UM\JOBAPI.H
C:\PROGRAM FILES (X86)\WINDOWS KITS\8.1\INCLUDE\UM\WOW64APISET.H
C:\PROGRAM FILES (X86)\WINDOWS KITS\8.1\INCLUDE\UM\LIBLOADERAPI.H
C:\PROGRAM FILES (X86)\WINDOWS KITS\8.1\INCLUDE\UM\SECURITYBASEAPI.H
C:\PROGRAM FILES (X86)\WINDOWS KITS\8.1\INCLUDE\UM\NAMESPACEAPI.H
C:\PROGRAM FILES (X86)\WINDOWS KITS\8.1\INCLUDE\UM\SYSTEMTOPOLOGYAPI.H
C:\PROGRAM FILES (X86)\WINDOWS KITS\8.1\INCLUDE\UM\PROCESSTOPOLOGYAPI.H
C:\PROGRAM FILES (X86)\WINDOWS KITS\8.1\INCLUDE\UM\SECURITYAPPCONTAINER.H
C:\PROGRAM FILES (X86)\WINDOWS KITS\8.1\INCLUDE\UM\REALTIMEAPISET.H
C:\PROGRAM FILES (X86)\WINDOWS KITS\8.1\INCLUDE\SHARED\WINERROR.H
C:\PROGRAM FILES (X86)\WINDOWS KITS\8.1\INCLUDE\UM\TIMEZONEAPI.H
C:\PROGRAM FILES (X86)\WINDOWS KITS\8.1\INCLUDE\UM\WINGDI.H
C:\PROGRAM FILES (X86)\WINDOWS KITS\8.1\INCLUDE\SHARED\PSHPACK1.H
C:\PROGRAM FILES (X86)\WINDOWS KITS\8.1\INCLUDE\UM\WINUSER.H
C:\PROGRAM FILES (X86)\WINDOWS KITS\8.1\INCLUDE\SHARED\TVOUT.H
C:\PROGRAM FILES (X86)\WINDOWS KITS\8.1\INCLUDE\UM\WINNLS.H
C:\PROGRAM FILES (X86)\WINDOWS KITS\8.1\INCLUDE\UM\DATETIMEAPI.H
C:\PROGRAM FILES (X86)\WINDOWS KITS\8.1\INCLUDE\UM\STRINGAPISET.H
C:\PROGRAM FILES (X86)\WINDOWS KITS\8.1\INCLUDE\UM\WINCON.H
C:\PROGRAM FILES (X86)\WINDOWS KITS\8.1\INCLUDE\UM\CONSOLEAPI.H
C:\PROGRAM FILES (X86)\WINDOWS KITS\8.1\INCLUDE\UM\WINVER.H
C:\PROGRAM FILES (X86)\WINDOWS KITS\8.1\INCLUDE\UM\VERRSRC.H
C:\PROGRAM FILES (X86)\WINDOWS KITS\8.1\INCLUDE\UM\WINREG.H
C:\PROGRAM FILES (X86)\WINDOWS KITS\8.1\INCLUDE\UM\REASON.H
C:\PROGRAM FILES (X86)\WINDOWS KITS\8.1\INCLUDE\UM\WINNETWK.H
C:\PROGRAM FILES (X86)\WINDOWS KITS\8.1\INCLUDE\SHARED\WNNC.H
C:\PROGRAM FILES (X86)\WINDOWS KITS\8.1\INCLUDE\SHARED\STRALIGN.H
C:\PROGRAM FILES (X86)\WINDOWS KITS\8.1\INCLUDE\UM\WINSVC.H
C:\PROGRAM FILES (X86)\WINDOWS KITS\8.1\INCLUDE\UM\MCX.H
C:\PROGRAM FILES (X86)\WINDOWS KITS\8.1\INCLUDE\UM\IMM.H
C:\PROGRAM FILES (X86)\WINDOWS KITS\8.1\INCLUDE\UM\IME_CMODES.H
C:\PROGRAM FILES (X86)\WINDOWS KITS\8.1\INCLUDE\SHARED\WS2DEF.H
C:\PROGRAM FILES (X86)\WINDOWS KITS\8.1\INCLUDE\SHARED\INADDR.H
C:\PROGRAM FILES (X86)\WINDOWS KITS\8.1\INCLUDE\SHARED\QOS.H
C:\PROGRAM FILES (X86)\MICROSOFT VISUAL STUDIO 12.0\VC\INCLUDE\TCHAR.H
C:\PROGRAM FILES (X86)\MICROSOFT VISUAL STUDIO 12.0\VC\INCLUDE\MBSTRING.H
C:\PROGRAM FILES (X86)\MICROSOFT VISUAL STUDIO 12.0\VC\INCLUDE\STDIO.H
C:\PROGRAM FILES (X86)\MICROSOFT VISUAL STUDIO 12.0\VC\INCLUDE\SWPRINTF.INL
C:\PROGRAM FILES (X86)\WINDOWS KITS\8.1\INCLUDE\UM\WINCRYPT.H
C:\PROGRAM FILES (X86)\WINDOWS KITS\8.1\INCLUDE\SHARED\BCRYPT.H
C:\PROGRAM FILES (X86)\WINDOWS KITS\8.1\INCLUDE\UM\NCRYPT.H
C:\PROGRAM FILES (X86)\WINDOWS KITS\8.1\INCLUDE\UM\DPAPI.H
G:\DBZ\CLIENT\DBOCLIENT\NTLLIB\SERVER\NTLSYSTEM\NTLBASE.H
G:\DBZ\CLIENT\DBOCLIENT\NTLLIB\SHARED\NTLSHAREDCOMMON.H
C:\PROGRAM FILES (X86)\MICROSOFT VISUAL STUDIO 12.0\VC\INCLUDE\STDLIB.H
C:\PROGRAM FILES (X86)\MICROSOFT VISUAL STUDIO 12.0\VC\INCLUDE\LIMITS.H
^G:\DBZ\SERVER\MASTACORE\BOTMASTER\CLIENTSESSION.CPP
G:\DBZ\SERVER\MASTACORE\BOTMASTER\DEBUG\BOTMASTER.PCH
G:\DBZ\SERVER\MASTACORE\BOTMASTER\BOTSERVER.H
G:\DBZ\CLIENT\DBOCLIENT\NTLLIB\SERVER\NTLSFX\NTLSFX.H
G:\DBZ\CLIENT\DBOCLIENT\NTLLIB\SERVER\NTLNETWORK\NTLNETWORK.H
G:\DBZ\CLIENT\DBOCLIENT\NTLLIB\SERVER\NTLNETWORK\NTLIOCP.H
G:\DBZ\CLIENT\DBOCLIENT\NTLLIB\SERVER\NTLNETWORK\NTLSESSIONLIST.H
G:\DBZ\CLIENT\DBOCLIENT\NTLLIB\SERVER\NTLSYSTEM\NTLLINKARRAY.H
G:\DBZ\CLIENT\DBOCLIENT\NTLLIB\SERVER\NTLSYSTEM\NTLDEBUG.H
G:\DBZ\CLIENT\DBOCLIENT\NTLLIB\SERVER\NTLSYSTEM\NTLMINIDUMP.H
C:\PROGRAM FILES (X86)\MICROSOFT VISUAL STUDIO 12.0\VC\INCLUDE\CRTDBG.H
C:\PROGRAM FILES (X86)\MICROSOFT VISUAL STUDIO 12.0\VC\INCLUDE\CRTDEFS.H
G:\DBZ\CLIENT\DBOCLIENT\NTLLIB\SERVER\NTLSYSTEM\NTLMUTEX.H
C:\PROGRAM FILES (X86)\MICROSOFT VISUAL STUDIO 12.0\VC\INCLUDE\MAP
C:\PROGRAM FILES (X86)\MICROSOFT VISUAL STUDIO 12.0\VC\INCLUDE\XTREE
C:\PROGRAM FILES (X86)\MICROSOFT VISUAL STUDIO 12.0\VC\INCLUDE\XMEMORY
C:\PROGRAM FILES (X86)\MICROSOFT VISUAL STUDIO 12.0\VC\INCLUDE\XMEMORY0
C:\PROGRAM FILES (X86)\MICROSOFT VISUAL STUDIO 12.0\VC\INCLUDE\CSTDLIB
C:\PROGRAM FILES (X86)\MICROSOFT VISUAL STUDIO 12.0\VC\INCLUDE\YVALS.H
C:\PROGRAM FILES (X86)\MICROSOFT VISUAL STUDIO 12.0\VC\INCLUDE\XKEYCHECK.H
C:\PROGRAM FILES (X86)\MICROSOFT VISUAL STUDIO 12.0\VC\INCLUDE\USE_ANSI.H
C:\PROGRAM FILES (X86)\MICROSOFT VISUAL STUDIO 12.0\VC\INCLUDE\LIMITS
C:\PROGRAM FILES (X86)\MICROSOFT VISUAL STUDIO 12.0\VC\INCLUDE\YMATH.H
C:\PROGRAM FILES (X86)\MICROSOFT VISUAL STUDIO 12.0\VC\INCLUDE\CFLOAT
C:\PROGRAM FILES (X86)\MICROSOFT VISUAL STUDIO 12.0\VC\INCLUDE\FLOAT.H
C:\PROGRAM FILES (X86)\MICROSOFT VISUAL STUDIO 12.0\VC\INCLUDE\CRTWRN.H
C:\PROGRAM FILES (X86)\MICROSOFT VISUAL STUDIO 12.0\VC\INCLUDE\CLIMITS
C:\PROGRAM FILES (X86)\MICROSOFT VISUAL STUDIO 12.0\VC\INCLUDE\CMATH
C:\PROGRAM FILES (X86)\MICROSOFT VISUAL STUDIO 12.0\VC\INCLUDE\MATH.H
C:\PROGRAM FILES (X86)\MICROSOFT VISUAL STUDIO 12.0\VC\INCLUDE\XTGMATH.H
C:\PROGRAM FILES (X86)\MICROSOFT VISUAL STUDIO 12.0\VC\INCLUDE\XTR1COMMON
C:\PROGRAM FILES (X86)\MICROSOFT VISUAL STUDIO 12.0\VC\INCLUDE\CWCHAR
C:\PROGRAM FILES (X86)\MICROSOFT VISUAL STUDIO 12.0\VC\INCLUDE\WCHAR.H
C:\PROGRAM FILES (X86)\MICROSOFT VISUAL STUDIO 12.0\VC\INCLUDE\WTIME.INL
C:\PROGRAM FILES (X86)\MICROSOFT VISUAL STUDIO 12.0\VC\INCLUDE\XSTDDEF
C:\PROGRAM FILES (X86)\MICROSOFT VISUAL STUDIO 12.0\VC\INCLUDE\CSTDDEF
C:\PROGRAM FILES (X86)\MICROSOFT VISUAL STUDIO 12.0\VC\INCLUDE\STDDEF.H
C:\PROGRAM FILES (X86)\MICROSOFT VISUAL STUDIO 12.0\VC\INCLUDE\INITIALIZER_LIST
C:\PROGRAM FILES (X86)\MICROSOFT VISUAL STUDIO 12.0\VC\INCLUDE\NEW
C:\PROGRAM FILES (X86)\MICROSOFT VISUAL STUDIO 12.0\VC\INCLUDE\EXCEPTION
C:\PROGRAM FILES (X86)\MICROSOFT VISUAL STUDIO 12.0\VC\INCLUDE\EH.H
C:\PROGRAM FILES (X86)\MICROSOFT VISUAL STUDIO 12.0\VC\INCLUDE\MALLOC.H
C:\PROGRAM FILES (X86)\MICROSOFT VISUAL STUDIO 12.0\VC\INCLUDE\XUTILITY
C:\PROGRAM FILES (X86)\MICROSOFT VISUAL STUDIO 12.0\VC\INCLUDE\UTILITY
C:\PROGRAM FILES (X86)\MICROSOFT VISUAL STUDIO 12.0\VC\INCLUDE\IOSFWD
C:\PROGRAM FILES (X86)\MICROSOFT VISUAL STUDIO 12.0\VC\INCLUDE\CSTDIO
C:\PROGRAM FILES (X86)\MICROSOFT VISUAL STUDIO 12.0\VC\INCLUDE\CSTRING
C:\PROGRAM FILES (X86)\MICROSOFT VISUAL STUDIO 12.0\VC\INCLUDE\TYPE_TRAITS
C:\PROGRAM FILES (X86)\MICROSOFT VISUAL STUDIO 12.0\VC\INCLUDE\XREFWRAP
C:\PROGRAM FILES (X86)\MICROSOFT VISUAL STUDIO 12.0\VC\INCLUDE\XATOMIC0.H
C:\PROGRAM FILES (X86)\MICROSOFT VISUAL STUDIO 12.0\VC\INCLUDE\INTRIN.H
C:\PROGRAM FILES (X86)\MICROSOFT VISUAL STUDIO 12.0\VC\INCLUDE\SETJMP.H
C:\PROGRAM FILES (X86)\MICROSOFT VISUAL STUDIO 12.0\VC\INCLUDE\IMMINTRIN.H
C:\PROGRAM FILES (X86)\MICROSOFT VISUAL STUDIO 12.0\VC\INCLUDE\WMMINTRIN.H
C:\PROGRAM FILES (X86)\MICROSOFT VISUAL STUDIO 12.0\VC\INCLUDE\NMMINTRIN.H
C:\PROGRAM FILES (X86)\MICROSOFT VISUAL STUDIO 12.0\VC\INCLUDE\SMMINTRIN.H
C:\PROGRAM FILES (X86)\MICROSOFT VISUAL STUDIO 12.0\VC\INCLUDE\TMMINTRIN.H
C:\PROGRAM FILES (X86)\MICROSOFT VISUAL STUDIO 12.0\VC\INCLUDE\PMMINTRIN.H
C:\PROGRAM FILES (X86)\MICROSOFT VISUAL STUDIO 12.0\VC\INCLUDE\EMMINTRIN.H
C:\PROGRAM FILES (X86)\MICROSOFT VISUAL STUDIO 12.0\VC\INCLUDE\XMMINTRIN.H
C:\PROGRAM FILES (X86)\MICROSOFT VISUAL STUDIO 12.0\VC\INCLUDE\MMINTRIN.H
C:\PROGRAM FILES (X86)\MICROSOFT VISUAL STUDIO 12.0\VC\INCLUDE\AMMINTRIN.H
C:\PROGRAM FILES (X86)\MICROSOFT VISUAL STUDIO 12.0\VC\INCLUDE\MM3DNOW.H
C:\PROGRAM FILES (X86)\MICROSOFT VISUAL STUDIO 12.0\VC\INCLUDE\STDEXCEPT
C:\PROGRAM FILES (X86)\MICROSOFT VISUAL STUDIO 12.0\VC\INCLUDE\XSTRING
C:\PROGRAM FILES (X86)\MICROSOFT VISUAL STUDIO 12.0\VC\INCLUDE\TUPLE
G:\DBZ\CLIENT\DBOCLIENT\NTLLIB\SERVER\NTLNETWORK\NTLACCEPTOR.H
G:\DBZ\CLIENT\DBOCLIENT\NTLLIB\SERVER\NTLNETWORK\NTLSOCKET.H
C:\PROGRAM FILES (X86)\WINDOWS KITS\8.1\INCLUDE\UM\MSWSOCK.H
C:\PROGRAM FILES (X86)\WINDOWS KITS\8.1\INCLUDE\SHARED\MSWSOCKDEF.H
G:\DBZ\CLIENT\DBOCLIENT\NTLLIB\SERVER\NTLNETWORK\NTLSOCKADDR.H
G:\DBZ\CLIENT\DBOCLIENT\NTLLIB\SERVER\NTLSYSTEM\NTLSTRING.H
C:\PROGRAM FILES (X86)\MICROSOFT VISUAL STUDIO 12.0\VC\INCLUDE\STRING
C:\PROGRAM FILES (X86)\MICROSOFT VISUAL STUDIO 12.0\VC\INCLUDE\ITERATOR
C:\PROGRAM FILES (X86)\MICROSOFT VISUAL STUDIO 12.0\VC\INCLUDE\ISTREAM
C:\PROGRAM FILES (X86)\MICROSOFT VISUAL STUDIO 12.0\VC\INCLUDE\OSTREAM
C:\PROGRAM FILES (X86)\MICROSOFT VISUAL STUDIO 12.0\VC\INCLUDE\IOS
C:\PROGRAM FILES (X86)\MICROSOFT VISUAL STUDIO 12.0\VC\INCLUDE\XLOCNUM
C:\PROGRAM FILES (X86)\MICROSOFT VISUAL STUDIO 12.0\VC\INCLUDE\STREAMBUF
C:\PROGRAM FILES (X86)\MICROSOFT VISUAL STUDIO 12.0\VC\INCLUDE\XIOSBASE
C:\PROGRAM FILES (X86)\MICROSOFT VISUAL STUDIO 12.0\VC\INCLUDE\XLOCALE
C:\PROGRAM FILES (X86)\MICROSOFT VISUAL STUDIO 12.0\VC\INCLUDE\TYPEINFO
C:\PROGRAM FILES (X86)\MICROSOFT VISUAL STUDIO 12.0\VC\INCLUDE\XLOCINFO
C:\PROGRAM FILES (X86)\MICROSOFT VISUAL STUDIO 12.0\VC\INCLUDE\XLOCINFO.H
C:\PROGRAM FILES (X86)\MICROSOFT VISUAL STUDIO 12.0\VC\INCLUDE\LOCALE.H
C:\PROGRAM FILES (X86)\MICROSOFT VISUAL STUDIO 12.0\VC\INCLUDE\XDEBUG
C:\PROGRAM FILES (X86)\MICROSOFT VISUAL STUDIO 12.0\VC\INCLUDE\XFACET
C:\PROGRAM FILES (X86)\MICROSOFT VISUAL STUDIO 12.0\VC\INCLUDE\SYSTEM_ERROR
C:\PROGRAM FILES (X86)\MICROSOFT VISUAL STUDIO 12.0\VC\INCLUDE\CERRNO
C:\PROGRAM FILES (X86)\MICROSOFT VISUAL STUDIO 12.0\VC\INCLUDE\ERRNO.H
C:\PROGRAM FILES (X86)\MICROSOFT VISUAL STUDIO 12.0\VC\INCLUDE\SHARE.H
G:\DBZ\CLIENT\DBOCLIENT\NTLLIB\SERVER\NTLNETWORK\NTLCONNECTOR.H
G:\DBZ\CLIENT\DBOCLIENT\NTLLIB\SERVER\NTLNETWORK\NTLSESSION.H
G:\DBZ\CLIENT\DBOCLIENT\NTLLIB\SERVER\NTLNETWORK\NTLCONNECTION.H
G:\DBZ\CLIENT\DBOCLIENT\NTLLIB\SHARED\UTIL\NTLBITFLAG.H
G:\DBZ\CLIENT\DBOCLIENT\NTLLIB\SERVER\NTLNETWORK\NTLNETBUFFER.H
G:\DBZ\CLIENT\DBOCLIENT\NTLLIB\SERVER\NTLNETWORK\NTLPACKET.H
G:\DBZ\CLIENT\DBOCLIENT\NTLLIB\SERVER\NTLNETWORK\NTLPACKETENCODER.H
G:\DBZ\CLIENT\DBOCLIENT\NTLLIB\SERVER\NTLSYSTEM\NTLCIRCULARQUEUE.H
G:\DBZ\CLIENT\DBOCLIENT\NTLLIB\SERVER\NTLSYSTEM\NTLERROR.H
G:\DBZ\CLIENT\DBOCLIENT\NTLLIB\SERVER\NTLSYSTEM\NTLERRORCODES.H
G:\DBZ\CLIENT\DBOCLIENT\NTLLIB\SERVER\NTLSYSTEM\NTLQUEUE.H
C:\PROGRAM FILES (X86)\MICROSOFT VISUAL STUDIO 12.0\VC\INCLUDE\DEQUE
G:\DBZ\CLIENT\DBOCLIENT\NTLLIB\SERVER\NTLNETWORK\NETWORKCOMPILEOPTION.H
G:\DBZ\CLIENT\DBOCLIENT\NTLLIB\SERVER\NTLNETWORK\NTLSESSIONFACTORY.H
G:\DBZ\CLIENT\DBOCLIENT\NTLLIB\SERVER\NTLSFX\NTLSERVERAPP.H
G:\DBZ\CLIENT\DBOCLIENT\NTLLIB\SERVER\NTLTHREAD\NTLTHREAD.H
G:\DBZ\CLIENT\DBOCLIENT\NTLLIB\SERVER\NTLSYSTEM\NTLLINKLIST.H
G:\DBZ\CLIENT\DBOCLIENT\NTLLIB\SERVER\NTLTHREAD\NTLEVENT.H
C:\PROGRAM FILES (X86)\MICROSOFT VISUAL STUDIO 12.0\VC\INCLUDE\PROCESS.H
G:\DBZ\CLIENT\DBOCLIENT\NTLLIB\SERVER\NTLSYSTEM\NTLSINGLETON.H
G:\DBZ\CLIENT\DBOCLIENT\NTLLIB\SERVER\NTLSYSTEM\NTLPERFORMANCE.H
G:\DBZ\CLIENT\DBOCLIENT\NTLLIB\SERVER\NTLSYSTEM\NTLPDH.H
C:\PROGRAM FILES (X86)\WINDOWS KITS\8.1\INCLUDE\UM\PDH.H
C:\PROGRAM FILES (X86)\WINDOWS KITS\8.1\INCLUDE\UM\WINPERF.H
C:\PROGRAM FILES (X86)\WINDOWS KITS\8.1\INCLUDE\SHARED\PSHPACK8.H
C:\PROGRAM FILES (X86)\WINDOWS KITS\8.1\INCLUDE\SHARED\POPPACK.H
G:\DBZ\CLIENT\DBOCLIENT\NTLLIB\SERVER\NTLSYSTEM\NTLINIFILE.H
G:\DBZ\CLIENT\DBOCLIENT\NTLLIB\SERVER\NTLSYSTEM\NTLLOG.H
C:\PROGRAM FILES (X86)\MICROSOFT VISUAL STUDIO 12.0\VC\INCLUDE\LIST
G:\DBZ\SERVER\MASTACORE\BOTMASTER\CLIENTSESSION.H
G:\DBZ\CLIENT\DBOCLIENT\NTLLIB\SERVER\NTLNETWORK\NTLPACKETENCODER_RANDKEY.H
G:\DBZ\CLIENT\DBOCLIENT\NTLLIB\SERVER\NTLSYSTEM\NTLRANDOMGENERATOR.H
G:\DBZ\CLIENT\DBOCLIENT\DBOSHARED\NTLSHARED2\NTLPACKETBABM.H
G:\DBZ\CLIENT\DBOCLIENT\DBOSHARED\NTLSHARED2\NTLPACKETCOMMON.H
G:\DBZ\CLIENT\DBOCLIENT\DBOSHARED\NTLSHARED2\NTLSHAREDTYPE.H
G:\DBZ\CLIENT\DBOCLIENT\DBOSHARED\NTLSHARED2\NTLSHAREDDEF.H
G:\DBZ\CLIENT\DBOCLIENT\DBOSHARED\NTLSHARED2\NTLPACKETBMBA.H
G:\DBZ\CLIENT\DBOCLIENT\DBOSHARED\NTLSHARED2\NTLSHAREDBOTSYSTEMDEF.H
G:\DBZ\CLIENT\DBOCLIENT\DBOSHARED\NTLSHARED2\NTLPACKETBCBM.H
G:\DBZ\CLIENT\DBOCLIENT\DBOSHARED\NTLSHARED2\NTLPACKETBMBC.H
G:\DBZ\CLIENT\DBOCLIENT\DBOSHARED\NTLSHARED2\NTLPACKETUTIL.H
C:\PROGRAM FILES (X86)\MICROSOFT VISUAL STUDIO 12.0\VC\INCLUDE\IOSTREAM
G:\DBZ\SERVER\MASTACORE\BOTMASTER\BOTSESSIONFACTORY.H
G:\DBZ\CLIENT\DBOCLIENT\NTLLIB\SERVER\NTLNETWORK\BOTSYSTEMLOG_SERVER.H
C:\PROGRAM FILES (X86)\MICROSOFT VISUAL STUDIO 12.0\VC\INCLUDE\FSTREAM
^G:\DBZ\SERVER\MASTACORE\BOTMASTER\BOTSESSIONFACTORY.CPP
G:\DBZ\SERVER\MASTACORE\BOTMASTER\DEBUG\BOTMASTER.PCH
G:\DBZ\SERVER\MASTACORE\BOTMASTER\BOTSESSIONFACTORY.H
G:\DBZ\SERVER\MASTACORE\BOTMASTER\BOTSERVER.H
G:\DBZ\CLIENT\DBOCLIENT\NTLLIB\SERVER\NTLSFX\NTLSFX.H
G:\DBZ\CLIENT\DBOCLIENT\NTLLIB\SERVER\NTLNETWORK\NTLNETWORK.H
G:\DBZ\CLIENT\DBOCLIENT\NTLLIB\SERVER\NTLNETWORK\NTLIOCP.H
G:\DBZ\CLIENT\DBOCLIENT\NTLLIB\SERVER\NTLNETWORK\NTLSESSIONLIST.H
G:\DBZ\CLIENT\DBOCLIENT\NTLLIB\SERVER\NTLSYSTEM\NTLLINKARRAY.H
G:\DBZ\CLIENT\DBOCLIENT\NTLLIB\SERVER\NTLSYSTEM\NTLDEBUG.H
G:\DBZ\CLIENT\DBOCLIENT\NTLLIB\SERVER\NTLSYSTEM\NTLMINIDUMP.H
C:\PROGRAM FILES (X86)\MICROSOFT VISUAL STUDIO 12.0\VC\INCLUDE\CRTDBG.H
C:\PROGRAM FILES (X86)\MICROSOFT VISUAL STUDIO 12.0\VC\INCLUDE\CRTDEFS.H
G:\DBZ\CLIENT\DBOCLIENT\NTLLIB\SERVER\NTLSYSTEM\NTLMUTEX.H
C:\PROGRAM FILES (X86)\MICROSOFT VISUAL STUDIO 12.0\VC\INCLUDE\MAP
C:\PROGRAM FILES (X86)\MICROSOFT VISUAL STUDIO 12.0\VC\INCLUDE\XTREE
C:\PROGRAM FILES (X86)\MICROSOFT VISUAL STUDIO 12.0\VC\INCLUDE\XMEMORY
C:\PROGRAM FILES (X86)\MICROSOFT VISUAL STUDIO 12.0\VC\INCLUDE\XMEMORY0
C:\PROGRAM FILES (X86)\MICROSOFT VISUAL STUDIO 12.0\VC\INCLUDE\CSTDLIB
C:\PROGRAM FILES (X86)\MICROSOFT VISUAL STUDIO 12.0\VC\INCLUDE\YVALS.H
C:\PROGRAM FILES (X86)\MICROSOFT VISUAL STUDIO 12.0\VC\INCLUDE\XKEYCHECK.H
C:\PROGRAM FILES (X86)\MICROSOFT VISUAL STUDIO 12.0\VC\INCLUDE\USE_ANSI.H
C:\PROGRAM FILES (X86)\MICROSOFT VISUAL STUDIO 12.0\VC\INCLUDE\LIMITS
C:\PROGRAM FILES (X86)\MICROSOFT VISUAL STUDIO 12.0\VC\INCLUDE\YMATH.H
C:\PROGRAM FILES (X86)\MICROSOFT VISUAL STUDIO 12.0\VC\INCLUDE\CFLOAT
C:\PROGRAM FILES (X86)\MICROSOFT VISUAL STUDIO 12.0\VC\INCLUDE\FLOAT.H
C:\PROGRAM FILES (X86)\MICROSOFT VISUAL STUDIO 12.0\VC\INCLUDE\CRTWRN.H
C:\PROGRAM FILES (X86)\MICROSOFT VISUAL STUDIO 12.0\VC\INCLUDE\CLIMITS
C:\PROGRAM FILES (X86)\MICROSOFT VISUAL STUDIO 12.0\VC\INCLUDE\CMATH
C:\PROGRAM FILES (X86)\MICROSOFT VISUAL STUDIO 12.0\VC\INCLUDE\MATH.H
C:\PROGRAM FILES (X86)\MICROSOFT VISUAL STUDIO 12.0\VC\INCLUDE\XTGMATH.H
C:\PROGRAM FILES (X86)\MICROSOFT VISUAL STUDIO 12.0\VC\INCLUDE\XTR1COMMON
C:\PROGRAM FILES (X86)\MICROSOFT VISUAL STUDIO 12.0\VC\INCLUDE\CWCHAR
C:\PROGRAM FILES (X86)\MICROSOFT VISUAL STUDIO 12.0\VC\INCLUDE\WCHAR.H
C:\PROGRAM FILES (X86)\MICROSOFT VISUAL STUDIO 12.0\VC\INCLUDE\WTIME.INL
C:\PROGRAM FILES (X86)\MICROSOFT VISUAL STUDIO 12.0\VC\INCLUDE\XSTDDEF
C:\PROGRAM FILES (X86)\MICROSOFT VISUAL STUDIO 12.0\VC\INCLUDE\CSTDDEF
C:\PROGRAM FILES (X86)\MICROSOFT VISUAL STUDIO 12.0\VC\INCLUDE\STDDEF.H
C:\PROGRAM FILES (X86)\MICROSOFT VISUAL STUDIO 12.0\VC\INCLUDE\INITIALIZER_LIST
C:\PROGRAM FILES (X86)\MICROSOFT VISUAL STUDIO 12.0\VC\INCLUDE\NEW
C:\PROGRAM FILES (X86)\MICROSOFT VISUAL STUDIO 12.0\VC\INCLUDE\EXCEPTION
C:\PROGRAM FILES (X86)\MICROSOFT VISUAL STUDIO 12.0\VC\INCLUDE\EH.H
C:\PROGRAM FILES (X86)\MICROSOFT VISUAL STUDIO 12.0\VC\INCLUDE\MALLOC.H
C:\PROGRAM FILES (X86)\MICROSOFT VISUAL STUDIO 12.0\VC\INCLUDE\XUTILITY
C:\PROGRAM FILES (X86)\MICROSOFT VISUAL STUDIO 12.0\VC\INCLUDE\UTILITY
C:\PROGRAM FILES (X86)\MICROSOFT VISUAL STUDIO 12.0\VC\INCLUDE\IOSFWD
C:\PROGRAM FILES (X86)\MICROSOFT VISUAL STUDIO 12.0\VC\INCLUDE\CSTDIO
C:\PROGRAM FILES (X86)\MICROSOFT VISUAL STUDIO 12.0\VC\INCLUDE\CSTRING
C:\PROGRAM FILES (X86)\MICROSOFT VISUAL STUDIO 12.0\VC\INCLUDE\TYPE_TRAITS
C:\PROGRAM FILES (X86)\MICROSOFT VISUAL STUDIO 12.0\VC\INCLUDE\XREFWRAP
C:\PROGRAM FILES (X86)\MICROSOFT VISUAL STUDIO 12.0\VC\INCLUDE\XATOMIC0.H
C:\PROGRAM FILES (X86)\MICROSOFT VISUAL STUDIO 12.0\VC\INCLUDE\INTRIN.H
C:\PROGRAM FILES (X86)\MICROSOFT VISUAL STUDIO 12.0\VC\INCLUDE\SETJMP.H
C:\PROGRAM FILES (X86)\MICROSOFT VISUAL STUDIO 12.0\VC\INCLUDE\IMMINTRIN.H
C:\PROGRAM FILES (X86)\MICROSOFT VISUAL STUDIO 12.0\VC\INCLUDE\WMMINTRIN.H
C:\PROGRAM FILES (X86)\MICROSOFT VISUAL STUDIO 12.0\VC\INCLUDE\NMMINTRIN.H
C:\PROGRAM FILES (X86)\MICROSOFT VISUAL STUDIO 12.0\VC\INCLUDE\SMMINTRIN.H
C:\PROGRAM FILES (X86)\MICROSOFT VISUAL STUDIO 12.0\VC\INCLUDE\TMMINTRIN.H
C:\PROGRAM FILES (X86)\MICROSOFT VISUAL STUDIO 12.0\VC\INCLUDE\PMMINTRIN.H
C:\PROGRAM FILES (X86)\MICROSOFT VISUAL STUDIO 12.0\VC\INCLUDE\EMMINTRIN.H
C:\PROGRAM FILES (X86)\MICROSOFT VISUAL STUDIO 12.0\VC\INCLUDE\XMMINTRIN.H
C:\PROGRAM FILES (X86)\MICROSOFT VISUAL STUDIO 12.0\VC\INCLUDE\MMINTRIN.H
C:\PROGRAM FILES (X86)\MICROSOFT VISUAL STUDIO 12.0\VC\INCLUDE\AMMINTRIN.H
C:\PROGRAM FILES (X86)\MICROSOFT VISUAL STUDIO 12.0\VC\INCLUDE\MM3DNOW.H
C:\PROGRAM FILES (X86)\MICROSOFT VISUAL STUDIO 12.0\VC\INCLUDE\STDEXCEPT
C:\PROGRAM FILES (X86)\MICROSOFT VISUAL STUDIO 12.0\VC\INCLUDE\XSTRING
C:\PROGRAM FILES (X86)\MICROSOFT VISUAL STUDIO 12.0\VC\INCLUDE\TUPLE
G:\DBZ\CLIENT\DBOCLIENT\NTLLIB\SERVER\NTLNETWORK\NTLACCEPTOR.H
G:\DBZ\CLIENT\DBOCLIENT\NTLLIB\SERVER\NTLNETWORK\NTLSOCKET.H
C:\PROGRAM FILES (X86)\WINDOWS KITS\8.1\INCLUDE\UM\MSWSOCK.H
C:\PROGRAM FILES (X86)\WINDOWS KITS\8.1\INCLUDE\SHARED\MSWSOCKDEF.H
G:\DBZ\CLIENT\DBOCLIENT\NTLLIB\SERVER\NTLNETWORK\NTLSOCKADDR.H
G:\DBZ\CLIENT\DBOCLIENT\NTLLIB\SERVER\NTLSYSTEM\NTLSTRING.H
C:\PROGRAM FILES (X86)\MICROSOFT VISUAL STUDIO 12.0\VC\INCLUDE\STRING
C:\PROGRAM FILES (X86)\MICROSOFT VISUAL STUDIO 12.0\VC\INCLUDE\ITERATOR
C:\PROGRAM FILES (X86)\MICROSOFT VISUAL STUDIO 12.0\VC\INCLUDE\ISTREAM
C:\PROGRAM FILES (X86)\MICROSOFT VISUAL STUDIO 12.0\VC\INCLUDE\OSTREAM
C:\PROGRAM FILES (X86)\MICROSOFT VISUAL STUDIO 12.0\VC\INCLUDE\IOS
C:\PROGRAM FILES (X86)\MICROSOFT VISUAL STUDIO 12.0\VC\INCLUDE\XLOCNUM
C:\PROGRAM FILES (X86)\MICROSOFT VISUAL STUDIO 12.0\VC\INCLUDE\STREAMBUF
C:\PROGRAM FILES (X86)\MICROSOFT VISUAL STUDIO 12.0\VC\INCLUDE\XIOSBASE
C:\PROGRAM FILES (X86)\MICROSOFT VISUAL STUDIO 12.0\VC\INCLUDE\XLOCALE
C:\PROGRAM FILES (X86)\MICROSOFT VISUAL STUDIO 12.0\VC\INCLUDE\TYPEINFO
C:\PROGRAM FILES (X86)\MICROSOFT VISUAL STUDIO 12.0\VC\INCLUDE\XLOCINFO
C:\PROGRAM FILES (X86)\MICROSOFT VISUAL STUDIO 12.0\VC\INCLUDE\XLOCINFO.H
C:\PROGRAM FILES (X86)\MICROSOFT VISUAL STUDIO 12.0\VC\INCLUDE\LOCALE.H
C:\PROGRAM FILES (X86)\MICROSOFT VISUAL STUDIO 12.0\VC\INCLUDE\XDEBUG
C:\PROGRAM FILES (X86)\MICROSOFT VISUAL STUDIO 12.0\VC\INCLUDE\XFACET
C:\PROGRAM FILES (X86)\MICROSOFT VISUAL STUDIO 12.0\VC\INCLUDE\SYSTEM_ERROR
C:\PROGRAM FILES (X86)\MICROSOFT VISUAL STUDIO 12.0\VC\INCLUDE\CERRNO
C:\PROGRAM FILES (X86)\MICROSOFT VISUAL STUDIO 12.0\VC\INCLUDE\ERRNO.H
C:\PROGRAM FILES (X86)\MICROSOFT VISUAL STUDIO 12.0\VC\INCLUDE\SHARE.H
G:\DBZ\CLIENT\DBOCLIENT\NTLLIB\SERVER\NTLNETWORK\NTLCONNECTOR.H
G:\DBZ\CLIENT\DBOCLIENT\NTLLIB\SERVER\NTLNETWORK\NTLSESSION.H
G:\DBZ\CLIENT\DBOCLIENT\NTLLIB\SERVER\NTLNETWORK\NTLCONNECTION.H
G:\DBZ\CLIENT\DBOCLIENT\NTLLIB\SHARED\UTIL\NTLBITFLAG.H
G:\DBZ\CLIENT\DBOCLIENT\NTLLIB\SERVER\NTLNETWORK\NTLNETBUFFER.H
G:\DBZ\CLIENT\DBOCLIENT\NTLLIB\SERVER\NTLNETWORK\NTLPACKET.H
G:\DBZ\CLIENT\DBOCLIENT\NTLLIB\SERVER\NTLNETWORK\NTLPACKETENCODER.H
G:\DBZ\CLIENT\DBOCLIENT\NTLLIB\SERVER\NTLSYSTEM\NTLCIRCULARQUEUE.H
G:\DBZ\CLIENT\DBOCLIENT\NTLLIB\SERVER\NTLSYSTEM\NTLERROR.H
G:\DBZ\CLIENT\DBOCLIENT\NTLLIB\SERVER\NTLSYSTEM\NTLERRORCODES.H
G:\DBZ\CLIENT\DBOCLIENT\NTLLIB\SERVER\NTLSYSTEM\NTLQUEUE.H
C:\PROGRAM FILES (X86)\MICROSOFT VISUAL STUDIO 12.0\VC\INCLUDE\DEQUE
G:\DBZ\CLIENT\DBOCLIENT\NTLLIB\SERVER\NTLNETWORK\NETWORKCOMPILEOPTION.H
G:\DBZ\CLIENT\DBOCLIENT\NTLLIB\SERVER\NTLNETWORK\NTLSESSIONFACTORY.H
G:\DBZ\CLIENT\DBOCLIENT\NTLLIB\SERVER\NTLSFX\NTLSERVERAPP.H
G:\DBZ\CLIENT\DBOCLIENT\NTLLIB\SERVER\NTLTHREAD\NTLTHREAD.H
G:\DBZ\CLIENT\DBOCLIENT\NTLLIB\SERVER\NTLSYSTEM\NTLLINKLIST.H
G:\DBZ\CLIENT\DBOCLIENT\NTLLIB\SERVER\NTLTHREAD\NTLEVENT.H
C:\PROGRAM FILES (X86)\MICROSOFT VISUAL STUDIO 12.0\VC\INCLUDE\PROCESS.H
G:\DBZ\CLIENT\DBOCLIENT\NTLLIB\SERVER\NTLSYSTEM\NTLSINGLETON.H
G:\DBZ\CLIENT\DBOCLIENT\NTLLIB\SERVER\NTLSYSTEM\NTLPERFORMANCE.H
G:\DBZ\CLIENT\DBOCLIENT\NTLLIB\SERVER\NTLSYSTEM\NTLPDH.H
C:\PROGRAM FILES (X86)\WINDOWS KITS\8.1\INCLUDE\UM\PDH.H
C:\PROGRAM FILES (X86)\WINDOWS KITS\8.1\INCLUDE\UM\WINPERF.H
C:\PROGRAM FILES (X86)\WINDOWS KITS\8.1\INCLUDE\SHARED\PSHPACK8.H
C:\PROGRAM FILES (X86)\WINDOWS KITS\8.1\INCLUDE\SHARED\POPPACK.H
G:\DBZ\CLIENT\DBOCLIENT\NTLLIB\SERVER\NTLSYSTEM\NTLINIFILE.H
G:\DBZ\CLIENT\DBOCLIENT\NTLLIB\SERVER\NTLSYSTEM\NTLLOG.H
C:\PROGRAM FILES (X86)\MICROSOFT VISUAL STUDIO 12.0\VC\INCLUDE\LIST
G:\DBZ\SERVER\MASTACORE\BOTMASTER\CLIENTSESSION.H
G:\DBZ\CLIENT\DBOCLIENT\NTLLIB\SERVER\NTLNETWORK\NTLPACKETENCODER_RANDKEY.H
G:\DBZ\CLIENT\DBOCLIENT\NTLLIB\SERVER\NTLSYSTEM\NTLRANDOMGENERATOR.H
G:\DBZ\CLIENT\DBOCLIENT\DBOSHARED\NTLSHARED2\NTLPACKETBABM.H
G:\DBZ\CLIENT\DBOCLIENT\DBOSHARED\NTLSHARED2\NTLPACKETCOMMON.H
G:\DBZ\CLIENT\DBOCLIENT\DBOSHARED\NTLSHARED2\NTLSHAREDTYPE.H
G:\DBZ\CLIENT\DBOCLIENT\DBOSHARED\NTLSHARED2\NTLSHAREDDEF.H
G:\DBZ\CLIENT\DBOCLIENT\DBOSHARED\NTLSHARED2\NTLPACKETBMBA.H
G:\DBZ\CLIENT\DBOCLIENT\DBOSHARED\NTLSHARED2\NTLSHAREDBOTSYSTEMDEF.H
G:\DBZ\CLIENT\DBOCLIENT\DBOSHARED\NTLSHARED2\NTLPACKETBCBM.H
G:\DBZ\CLIENT\DBOCLIENT\DBOSHARED\NTLSHARED2\NTLPACKETBMBC.H
G:\DBZ\CLIENT\DBOCLIENT\DBOSHARED\NTLSHARED2\NTLPACKETUTIL.H
C:\PROGRAM FILES (X86)\MICROSOFT VISUAL STUDIO 12.0\VC\INCLUDE\IOSTREAM
G:\DBZ\CLIENT\DBOCLIENT\NTLLIB\SERVER\NTLNETWORK\BOTSYSTEMLOG_SERVER.H
C:\PROGRAM FILES (X86)\MICROSOFT VISUAL STUDIO 12.0\VC\INCLUDE\FSTREAM
^G:\DBZ\SERVER\MASTACORE\BOTMASTER\BOTSERVER.CPP
G:\DBZ\SERVER\MASTACORE\BOTMASTER\DEBUG\BOTMASTER.PCH
G:\DBZ\SERVER\MASTACORE\BOTMASTER\BOTSERVER.H
G:\DBZ\CLIENT\DBOCLIENT\NTLLIB\SERVER\NTLSFX\NTLSFX.H
G:\DBZ\CLIENT\DBOCLIENT\NTLLIB\SERVER\NTLNETWORK\NTLNETWORK.H
G:\DBZ\CLIENT\DBOCLIENT\NTLLIB\SERVER\NTLNETWORK\NTLIOCP.H
G:\DBZ\CLIENT\DBOCLIENT\NTLLIB\SERVER\NTLNETWORK\NTLSESSIONLIST.H
G:\DBZ\CLIENT\DBOCLIENT\NTLLIB\SERVER\NTLSYSTEM\NTLLINKARRAY.H
G:\DBZ\CLIENT\DBOCLIENT\NTLLIB\SERVER\NTLSYSTEM\NTLDEBUG.H
G:\DBZ\CLIENT\DBOCLIENT\NTLLIB\SERVER\NTLSYSTEM\NTLMINIDUMP.H
C:\PROGRAM FILES (X86)\MICROSOFT VISUAL STUDIO 12.0\VC\INCLUDE\CRTDBG.H
C:\PROGRAM FILES (X86)\MICROSOFT VISUAL STUDIO 12.0\VC\INCLUDE\CRTDEFS.H
G:\DBZ\CLIENT\DBOCLIENT\NTLLIB\SERVER\NTLSYSTEM\NTLMUTEX.H
C:\PROGRAM FILES (X86)\MICROSOFT VISUAL STUDIO 12.0\VC\INCLUDE\MAP
C:\PROGRAM FILES (X86)\MICROSOFT VISUAL STUDIO 12.0\VC\INCLUDE\XTREE
C:\PROGRAM FILES (X86)\MICROSOFT VISUAL STUDIO 12.0\VC\INCLUDE\XMEMORY
C:\PROGRAM FILES (X86)\MICROSOFT VISUAL STUDIO 12.0\VC\INCLUDE\XMEMORY0
C:\PROGRAM FILES (X86)\MICROSOFT VISUAL STUDIO 12.0\VC\INCLUDE\CSTDLIB
C:\PROGRAM FILES (X86)\MICROSOFT VISUAL STUDIO 12.0\VC\INCLUDE\YVALS.H
C:\PROGRAM FILES (X86)\MICROSOFT VISUAL STUDIO 12.0\VC\INCLUDE\XKEYCHECK.H
C:\PROGRAM FILES (X86)\MICROSOFT VISUAL STUDIO 12.0\VC\INCLUDE\USE_ANSI.H
C:\PROGRAM FILES (X86)\MICROSOFT VISUAL STUDIO 12.0\VC\INCLUDE\LIMITS
C:\PROGRAM FILES (X86)\MICROSOFT VISUAL STUDIO 12.0\VC\INCLUDE\YMATH.H
C:\PROGRAM FILES (X86)\MICROSOFT VISUAL STUDIO 12.0\VC\INCLUDE\CFLOAT
C:\PROGRAM FILES (X86)\MICROSOFT VISUAL STUDIO 12.0\VC\INCLUDE\FLOAT.H
C:\PROGRAM FILES (X86)\MICROSOFT VISUAL STUDIO 12.0\VC\INCLUDE\CRTWRN.H
C:\PROGRAM FILES (X86)\MICROSOFT VISUAL STUDIO 12.0\VC\INCLUDE\CLIMITS
C:\PROGRAM FILES (X86)\MICROSOFT VISUAL STUDIO 12.0\VC\INCLUDE\CMATH
C:\PROGRAM FILES (X86)\MICROSOFT VISUAL STUDIO 12.0\VC\INCLUDE\MATH.H
C:\PROGRAM FILES (X86)\MICROSOFT VISUAL STUDIO 12.0\VC\INCLUDE\XTGMATH.H
C:\PROGRAM FILES (X86)\MICROSOFT VISUAL STUDIO 12.0\VC\INCLUDE\XTR1COMMON
C:\PROGRAM FILES (X86)\MICROSOFT VISUAL STUDIO 12.0\VC\INCLUDE\CWCHAR
C:\PROGRAM FILES (X86)\MICROSOFT VISUAL STUDIO 12.0\VC\INCLUDE\WCHAR.H
C:\PROGRAM FILES (X86)\MICROSOFT VISUAL STUDIO 12.0\VC\INCLUDE\WTIME.INL
C:\PROGRAM FILES (X86)\MICROSOFT VISUAL STUDIO 12.0\VC\INCLUDE\XSTDDEF
C:\PROGRAM FILES (X86)\MICROSOFT VISUAL STUDIO 12.0\VC\INCLUDE\CSTDDEF
C:\PROGRAM FILES (X86)\MICROSOFT VISUAL STUDIO 12.0\VC\INCLUDE\STDDEF.H
C:\PROGRAM FILES (X86)\MICROSOFT VISUAL STUDIO 12.0\VC\INCLUDE\INITIALIZER_LIST
C:\PROGRAM FILES (X86)\MICROSOFT VISUAL STUDIO 12.0\VC\INCLUDE\NEW
C:\PROGRAM FILES (X86)\MICROSOFT VISUAL STUDIO 12.0\VC\INCLUDE\EXCEPTION
C:\PROGRAM FILES (X86)\MICROSOFT VISUAL STUDIO 12.0\VC\INCLUDE\EH.H
C:\PROGRAM FILES (X86)\MICROSOFT VISUAL STUDIO 12.0\VC\INCLUDE\MALLOC.H
C:\PROGRAM FILES (X86)\MICROSOFT VISUAL STUDIO 12.0\VC\INCLUDE\XUTILITY
C:\PROGRAM FILES (X86)\MICROSOFT VISUAL STUDIO 12.0\VC\INCLUDE\UTILITY
C:\PROGRAM FILES (X86)\MICROSOFT VISUAL STUDIO 12.0\VC\INCLUDE\IOSFWD
C:\PROGRAM FILES (X86)\MICROSOFT VISUAL STUDIO 12.0\VC\INCLUDE\CSTDIO
C:\PROGRAM FILES (X86)\MICROSOFT VISUAL STUDIO 12.0\VC\INCLUDE\CSTRING
C:\PROGRAM FILES (X86)\MICROSOFT VISUAL STUDIO 12.0\VC\INCLUDE\TYPE_TRAITS
C:\PROGRAM FILES (X86)\MICROSOFT VISUAL STUDIO 12.0\VC\INCLUDE\XREFWRAP
C:\PROGRAM FILES (X86)\MICROSOFT VISUAL STUDIO 12.0\VC\INCLUDE\XATOMIC0.H
C:\PROGRAM FILES (X86)\MICROSOFT VISUAL STUDIO 12.0\VC\INCLUDE\INTRIN.H
C:\PROGRAM FILES (X86)\MICROSOFT VISUAL STUDIO 12.0\VC\INCLUDE\SETJMP.H
C:\PROGRAM FILES (X86)\MICROSOFT VISUAL STUDIO 12.0\VC\INCLUDE\IMMINTRIN.H
C:\PROGRAM FILES (X86)\MICROSOFT VISUAL STUDIO 12.0\VC\INCLUDE\WMMINTRIN.H
C:\PROGRAM FILES (X86)\MICROSOFT VISUAL STUDIO 12.0\VC\INCLUDE\NMMINTRIN.H
C:\PROGRAM FILES (X86)\MICROSOFT VISUAL STUDIO 12.0\VC\INCLUDE\SMMINTRIN.H
C:\PROGRAM FILES (X86)\MICROSOFT VISUAL STUDIO 12.0\VC\INCLUDE\TMMINTRIN.H
C:\PROGRAM FILES (X86)\MICROSOFT VISUAL STUDIO 12.0\VC\INCLUDE\PMMINTRIN.H
C:\PROGRAM FILES (X86)\MICROSOFT VISUAL STUDIO 12.0\VC\INCLUDE\EMMINTRIN.H
C:\PROGRAM FILES (X86)\MICROSOFT VISUAL STUDIO 12.0\VC\INCLUDE\XMMINTRIN.H
C:\PROGRAM FILES (X86)\MICROSOFT VISUAL STUDIO 12.0\VC\INCLUDE\MMINTRIN.H
C:\PROGRAM FILES (X86)\MICROSOFT VISUAL STUDIO 12.0\VC\INCLUDE\AMMINTRIN.H
C:\PROGRAM FILES (X86)\MICROSOFT VISUAL STUDIO 12.0\VC\INCLUDE\MM3DNOW.H
C:\PROGRAM FILES (X86)\MICROSOFT VISUAL STUDIO 12.0\VC\INCLUDE\STDEXCEPT
C:\PROGRAM FILES (X86)\MICROSOFT VISUAL STUDIO 12.0\VC\INCLUDE\XSTRING
C:\PROGRAM FILES (X86)\MICROSOFT VISUAL STUDIO 12.0\VC\INCLUDE\TUPLE
G:\DBZ\CLIENT\DBOCLIENT\NTLLIB\SERVER\NTLNETWORK\NTLACCEPTOR.H
G:\DBZ\CLIENT\DBOCLIENT\NTLLIB\SERVER\NTLNETWORK\NTLSOCKET.H
C:\PROGRAM FILES (X86)\WINDOWS KITS\8.1\INCLUDE\UM\MSWSOCK.H
C:\PROGRAM FILES (X86)\WINDOWS KITS\8.1\INCLUDE\SHARED\MSWSOCKDEF.H
G:\DBZ\CLIENT\DBOCLIENT\NTLLIB\SERVER\NTLNETWORK\NTLSOCKADDR.H
G:\DBZ\CLIENT\DBOCLIENT\NTLLIB\SERVER\NTLSYSTEM\NTLSTRING.H
C:\PROGRAM FILES (X86)\MICROSOFT VISUAL STUDIO 12.0\VC\INCLUDE\STRING
C:\PROGRAM FILES (X86)\MICROSOFT VISUAL STUDIO 12.0\VC\INCLUDE\ITERATOR
C:\PROGRAM FILES (X86)\MICROSOFT VISUAL STUDIO 12.0\VC\INCLUDE\ISTREAM
C:\PROGRAM FILES (X86)\MICROSOFT VISUAL STUDIO 12.0\VC\INCLUDE\OSTREAM
C:\PROGRAM FILES (X86)\MICROSOFT VISUAL STUDIO 12.0\VC\INCLUDE\IOS
C:\PROGRAM FILES (X86)\MICROSOFT VISUAL STUDIO 12.0\VC\INCLUDE\XLOCNUM
C:\PROGRAM FILES (X86)\MICROSOFT VISUAL STUDIO 12.0\VC\INCLUDE\STREAMBUF
C:\PROGRAM FILES (X86)\MICROSOFT VISUAL STUDIO 12.0\VC\INCLUDE\XIOSBASE
C:\PROGRAM FILES (X86)\MICROSOFT VISUAL STUDIO 12.0\VC\INCLUDE\XLOCALE
C:\PROGRAM FILES (X86)\MICROSOFT VISUAL STUDIO 12.0\VC\INCLUDE\TYPEINFO
C:\PROGRAM FILES (X86)\MICROSOFT VISUAL STUDIO 12.0\VC\INCLUDE\XLOCINFO
C:\PROGRAM FILES (X86)\MICROSOFT VISUAL STUDIO 12.0\VC\INCLUDE\XLOCINFO.H
C:\PROGRAM FILES (X86)\MICROSOFT VISUAL STUDIO 12.0\VC\INCLUDE\LOCALE.H
C:\PROGRAM FILES (X86)\MICROSOFT VISUAL STUDIO 12.0\VC\INCLUDE\XDEBUG
C:\PROGRAM FILES (X86)\MICROSOFT VISUAL STUDIO 12.0\VC\INCLUDE\XFACET
C:\PROGRAM FILES (X86)\MICROSOFT VISUAL STUDIO 12.0\VC\INCLUDE\SYSTEM_ERROR
C:\PROGRAM FILES (X86)\MICROSOFT VISUAL STUDIO 12.0\VC\INCLUDE\CERRNO
C:\PROGRAM FILES (X86)\MICROSOFT VISUAL STUDIO 12.0\VC\INCLUDE\ERRNO.H
C:\PROGRAM FILES (X86)\MICROSOFT VISUAL STUDIO 12.0\VC\INCLUDE\SHARE.H
G:\DBZ\CLIENT\DBOCLIENT\NTLLIB\SERVER\NTLNETWORK\NTLCONNECTOR.H
G:\DBZ\CLIENT\DBOCLIENT\NTLLIB\SERVER\NTLNETWORK\NTLSESSION.H
G:\DBZ\CLIENT\DBOCLIENT\NTLLIB\SERVER\NTLNETWORK\NTLCONNECTION.H
G:\DBZ\CLIENT\DBOCLIENT\NTLLIB\SHARED\UTIL\NTLBITFLAG.H
G:\DBZ\CLIENT\DBOCLIENT\NTLLIB\SERVER\NTLNETWORK\NTLNETBUFFER.H
G:\DBZ\CLIENT\DBOCLIENT\NTLLIB\SERVER\NTLNETWORK\NTLPACKET.H
G:\DBZ\CLIENT\DBOCLIENT\NTLLIB\SERVER\NTLNETWORK\NTLPACKETENCODER.H
G:\DBZ\CLIENT\DBOCLIENT\NTLLIB\SERVER\NTLSYSTEM\NTLCIRCULARQUEUE.H
G:\DBZ\CLIENT\DBOCLIENT\NTLLIB\SERVER\NTLSYSTEM\NTLERROR.H
G:\DBZ\CLIENT\DBOCLIENT\NTLLIB\SERVER\NTLSYSTEM\NTLERRORCODES.H
G:\DBZ\CLIENT\DBOCLIENT\NTLLIB\SERVER\NTLSYSTEM\NTLQUEUE.H
C:\PROGRAM FILES (X86)\MICROSOFT VISUAL STUDIO 12.0\VC\INCLUDE\DEQUE
G:\DBZ\CLIENT\DBOCLIENT\NTLLIB\SERVER\NTLNETWORK\NETWORKCOMPILEOPTION.H
G:\DBZ\CLIENT\DBOCLIENT\NTLLIB\SERVER\NTLNETWORK\NTLSESSIONFACTORY.H
G:\DBZ\CLIENT\DBOCLIENT\NTLLIB\SERVER\NTLSFX\NTLSERVERAPP.H
G:\DBZ\CLIENT\DBOCLIENT\NTLLIB\SERVER\NTLTHREAD\NTLTHREAD.H
G:\DBZ\CLIENT\DBOCLIENT\NTLLIB\SERVER\NTLSYSTEM\NTLLINKLIST.H
G:\DBZ\CLIENT\DBOCLIENT\NTLLIB\SERVER\NTLTHREAD\NTLEVENT.H
C:\PROGRAM FILES (X86)\MICROSOFT VISUAL STUDIO 12.0\VC\INCLUDE\PROCESS.H
G:\DBZ\CLIENT\DBOCLIENT\NTLLIB\SERVER\NTLSYSTEM\NTLSINGLETON.H
G:\DBZ\CLIENT\DBOCLIENT\NTLLIB\SERVER\NTLSYSTEM\NTLPERFORMANCE.H
G:\DBZ\CLIENT\DBOCLIENT\NTLLIB\SERVER\NTLSYSTEM\NTLPDH.H
C:\PROGRAM FILES (X86)\WINDOWS KITS\8.1\INCLUDE\UM\PDH.H
C:\PROGRAM FILES (X86)\WINDOWS KITS\8.1\INCLUDE\UM\WINPERF.H
C:\PROGRAM FILES (X86)\WINDOWS KITS\8.1\INCLUDE\SHARED\PSHPACK8.H
C:\PROGRAM FILES (X86)\WINDOWS KITS\8.1\INCLUDE\SHARED\POPPACK.H
G:\DBZ\CLIENT\DBOCLIENT\NTLLIB\SERVER\NTLSYSTEM\NTLINIFILE.H
G:\DBZ\CLIENT\DBOCLIENT\NTLLIB\SERVER\NTLSYSTEM\NTLLOG.H
C:\PROGRAM FILES (X86)\MICROSOFT VISUAL STUDIO 12.0\VC\INCLUDE\LIST
G:\DBZ\SERVER\MASTACORE\BOTMASTER\CLIENTSESSION.H
G:\DBZ\CLIENT\DBOCLIENT\NTLLIB\SERVER\NTLNETWORK\NTLPACKETENCODER_RANDKEY.H
G:\DBZ\CLIENT\DBOCLIENT\NTLLIB\SERVER\NTLSYSTEM\NTLRANDOMGENERATOR.H
G:\DBZ\CLIENT\DBOCLIENT\DBOSHARED\NTLSHARED2\NTLPACKETBABM.H
G:\DBZ\CLIENT\DBOCLIENT\DBOSHARED\NTLSHARED2\NTLPACKETCOMMON.H
G:\DBZ\CLIENT\DBOCLIENT\DBOSHARED\NTLSHARED2\NTLSHAREDTYPE.H
G:\DBZ\CLIENT\DBOCLIENT\DBOSHARED\NTLSHARED2\NTLSHAREDDEF.H
G:\DBZ\CLIENT\DBOCLIENT\DBOSHARED\NTLSHARED2\NTLPACKETBMBA.H
G:\DBZ\CLIENT\DBOCLIENT\DBOSHARED\NTLSHARED2\NTLSHAREDBOTSYSTEMDEF.H
G:\DBZ\CLIENT\DBOCLIENT\DBOSHARED\NTLSHARED2\NTLPACKETBCBM.H
G:\DBZ\CLIENT\DBOCLIENT\DBOSHARED\NTLSHARED2\NTLPACKETBMBC.H
G:\DBZ\CLIENT\DBOCLIENT\DBOSHARED\NTLSHARED2\NTLPACKETUTIL.H
C:\PROGRAM FILES (X86)\MICROSOFT VISUAL STUDIO 12.0\VC\INCLUDE\IOSTREAM
G:\DBZ\SERVER\MASTACORE\BOTMASTER\BOTSESSIONFACTORY.H
G:\DBZ\CLIENT\DBOCLIENT\NTLLIB\SERVER\NTLNETWORK\BOTSYSTEMLOG_SERVER.H
C:\PROGRAM FILES (X86)\MICROSOFT VISUAL STUDIO 12.0\VC\INCLUDE\FSTREAM
^G:\DBZ\SERVER\MASTACORE\BOTMASTER\BOTMASTER.CPP
G:\DBZ\SERVER\MASTACORE\BOTMASTER\DEBUG\BOTMASTER.PCH
G:\DBZ\CLIENT\DBOCLIENT\NTLLIB\SERVER\NTLSFX\NTLSFX.H
G:\DBZ\CLIENT\DBOCLIENT\NTLLIB\SERVER\NTLNETWORK\NTLNETWORK.H
G:\DBZ\CLIENT\DBOCLIENT\NTLLIB\SERVER\NTLNETWORK\NTLIOCP.H
G:\DBZ\CLIENT\DBOCLIENT\NTLLIB\SERVER\NTLNETWORK\NTLSESSIONLIST.H
G:\DBZ\CLIENT\DBOCLIENT\NTLLIB\SERVER\NTLSYSTEM\NTLLINKARRAY.H
G:\DBZ\CLIENT\DBOCLIENT\NTLLIB\SERVER\NTLSYSTEM\NTLDEBUG.H
G:\DBZ\CLIENT\DBOCLIENT\NTLLIB\SERVER\NTLSYSTEM\NTLMINIDUMP.H
C:\PROGRAM FILES (X86)\MICROSOFT VISUAL STUDIO 12.0\VC\INCLUDE\CRTDBG.H
C:\PROGRAM FILES (X86)\MICROSOFT VISUAL STUDIO 12.0\VC\INCLUDE\CRTDEFS.H
G:\DBZ\CLIENT\DBOCLIENT\NTLLIB\SERVER\NTLSYSTEM\NTLMUTEX.H
C:\PROGRAM FILES (X86)\MICROSOFT VISUAL STUDIO 12.0\VC\INCLUDE\MAP
C:\PROGRAM FILES (X86)\MICROSOFT VISUAL STUDIO 12.0\VC\INCLUDE\XTREE
C:\PROGRAM FILES (X86)\MICROSOFT VISUAL STUDIO 12.0\VC\INCLUDE\XMEMORY
C:\PROGRAM FILES (X86)\MICROSOFT VISUAL STUDIO 12.0\VC\INCLUDE\XMEMORY0
C:\PROGRAM FILES (X86)\MICROSOFT VISUAL STUDIO 12.0\VC\INCLUDE\CSTDLIB
C:\PROGRAM FILES (X86)\MICROSOFT VISUAL STUDIO 12.0\VC\INCLUDE\YVALS.H
C:\PROGRAM FILES (X86)\MICROSOFT VISUAL STUDIO 12.0\VC\INCLUDE\XKEYCHECK.H
C:\PROGRAM FILES (X86)\MICROSOFT VISUAL STUDIO 12.0\VC\INCLUDE\USE_ANSI.H
C:\PROGRAM FILES (X86)\MICROSOFT VISUAL STUDIO 12.0\VC\INCLUDE\LIMITS
C:\PROGRAM FILES (X86)\MICROSOFT VISUAL STUDIO 12.0\VC\INCLUDE\YMATH.H
C:\PROGRAM FILES (X86)\MICROSOFT VISUAL STUDIO 12.0\VC\INCLUDE\CFLOAT
C:\PROGRAM FILES (X86)\MICROSOFT VISUAL STUDIO 12.0\VC\INCLUDE\FLOAT.H
C:\PROGRAM FILES (X86)\MICROSOFT VISUAL STUDIO 12.0\VC\INCLUDE\CRTWRN.H
C:\PROGRAM FILES (X86)\MICROSOFT VISUAL STUDIO 12.0\VC\INCLUDE\CLIMITS
C:\PROGRAM FILES (X86)\MICROSOFT VISUAL STUDIO 12.0\VC\INCLUDE\CMATH
C:\PROGRAM FILES (X86)\MICROSOFT VISUAL STUDIO 12.0\VC\INCLUDE\MATH.H
C:\PROGRAM FILES (X86)\MICROSOFT VISUAL STUDIO 12.0\VC\INCLUDE\XTGMATH.H
C:\PROGRAM FILES (X86)\MICROSOFT VISUAL STUDIO 12.0\VC\INCLUDE\XTR1COMMON
C:\PROGRAM FILES (X86)\MICROSOFT VISUAL STUDIO 12.0\VC\INCLUDE\CWCHAR
C:\PROGRAM FILES (X86)\MICROSOFT VISUAL STUDIO 12.0\VC\INCLUDE\WCHAR.H
C:\PROGRAM FILES (X86)\MICROSOFT VISUAL STUDIO 12.0\VC\INCLUDE\WTIME.INL
C:\PROGRAM FILES (X86)\MICROSOFT VISUAL STUDIO 12.0\VC\INCLUDE\XSTDDEF
C:\PROGRAM FILES (X86)\MICROSOFT VISUAL STUDIO 12.0\VC\INCLUDE\CSTDDEF
C:\PROGRAM FILES (X86)\MICROSOFT VISUAL STUDIO 12.0\VC\INCLUDE\STDDEF.H
C:\PROGRAM FILES (X86)\MICROSOFT VISUAL STUDIO 12.0\VC\INCLUDE\INITIALIZER_LIST
C:\PROGRAM FILES (X86)\MICROSOFT VISUAL STUDIO 12.0\VC\INCLUDE\NEW
C:\PROGRAM FILES (X86)\MICROSOFT VISUAL STUDIO 12.0\VC\INCLUDE\EXCEPTION
C:\PROGRAM FILES (X86)\MICROSOFT VISUAL STUDIO 12.0\VC\INCLUDE\EH.H
C:\PROGRAM FILES (X86)\MICROSOFT VISUAL STUDIO 12.0\VC\INCLUDE\MALLOC.H
C:\PROGRAM FILES (X86)\MICROSOFT VISUAL STUDIO 12.0\VC\INCLUDE\XUTILITY
C:\PROGRAM FILES (X86)\MICROSOFT VISUAL STUDIO 12.0\VC\INCLUDE\UTILITY
C:\PROGRAM FILES (X86)\MICROSOFT VISUAL STUDIO 12.0\VC\INCLUDE\IOSFWD
C:\PROGRAM FILES (X86)\MICROSOFT VISUAL STUDIO 12.0\VC\INCLUDE\CSTDIO
C:\PROGRAM FILES (X86)\MICROSOFT VISUAL STUDIO 12.0\VC\INCLUDE\CSTRING
C:\PROGRAM FILES (X86)\MICROSOFT VISUAL STUDIO 12.0\VC\INCLUDE\TYPE_TRAITS
C:\PROGRAM FILES (X86)\MICROSOFT VISUAL STUDIO 12.0\VC\INCLUDE\XREFWRAP
C:\PROGRAM FILES (X86)\MICROSOFT VISUAL STUDIO 12.0\VC\INCLUDE\XATOMIC0.H
C:\PROGRAM FILES (X86)\MICROSOFT VISUAL STUDIO 12.0\VC\INCLUDE\INTRIN.H
C:\PROGRAM FILES (X86)\MICROSOFT VISUAL STUDIO 12.0\VC\INCLUDE\SETJMP.H
C:\PROGRAM FILES (X86)\MICROSOFT VISUAL STUDIO 12.0\VC\INCLUDE\IMMINTRIN.H
C:\PROGRAM FILES (X86)\MICROSOFT VISUAL STUDIO 12.0\VC\INCLUDE\WMMINTRIN.H
C:\PROGRAM FILES (X86)\MICROSOFT VISUAL STUDIO 12.0\VC\INCLUDE\NMMINTRIN.H
C:\PROGRAM FILES (X86)\MICROSOFT VISUAL STUDIO 12.0\VC\INCLUDE\SMMINTRIN.H
C:\PROGRAM FILES (X86)\MICROSOFT VISUAL STUDIO 12.0\VC\INCLUDE\TMMINTRIN.H
C:\PROGRAM FILES (X86)\MICROSOFT VISUAL STUDIO 12.0\VC\INCLUDE\PMMINTRIN.H
C:\PROGRAM FILES (X86)\MICROSOFT VISUAL STUDIO 12.0\VC\INCLUDE\EMMINTRIN.H
C:\PROGRAM FILES (X86)\MICROSOFT VISUAL STUDIO 12.0\VC\INCLUDE\XMMINTRIN.H
C:\PROGRAM FILES (X86)\MICROSOFT VISUAL STUDIO 12.0\VC\INCLUDE\MMINTRIN.H
C:\PROGRAM FILES (X86)\MICROSOFT VISUAL STUDIO 12.0\VC\INCLUDE\AMMINTRIN.H
C:\PROGRAM FILES (X86)\MICROSOFT VISUAL STUDIO 12.0\VC\INCLUDE\MM3DNOW.H
C:\PROGRAM FILES (X86)\MICROSOFT VISUAL STUDIO 12.0\VC\INCLUDE\STDEXCEPT
C:\PROGRAM FILES (X86)\MICROSOFT VISUAL STUDIO 12.0\VC\INCLUDE\XSTRING
C:\PROGRAM FILES (X86)\MICROSOFT VISUAL STUDIO 12.0\VC\INCLUDE\TUPLE
G:\DBZ\CLIENT\DBOCLIENT\NTLLIB\SERVER\NTLNETWORK\NTLACCEPTOR.H
G:\DBZ\CLIENT\DBOCLIENT\NTLLIB\SERVER\NTLNETWORK\NTLSOCKET.H
C:\PROGRAM FILES (X86)\WINDOWS KITS\8.1\INCLUDE\UM\MSWSOCK.H
C:\PROGRAM FILES (X86)\WINDOWS KITS\8.1\INCLUDE\SHARED\MSWSOCKDEF.H
G:\DBZ\CLIENT\DBOCLIENT\NTLLIB\SERVER\NTLNETWORK\NTLSOCKADDR.H
G:\DBZ\CLIENT\DBOCLIENT\NTLLIB\SERVER\NTLSYSTEM\NTLSTRING.H
C:\PROGRAM FILES (X86)\MICROSOFT VISUAL STUDIO 12.0\VC\INCLUDE\STRING
C:\PROGRAM FILES (X86)\MICROSOFT VISUAL STUDIO 12.0\VC\INCLUDE\ITERATOR
C:\PROGRAM FILES (X86)\MICROSOFT VISUAL STUDIO 12.0\VC\INCLUDE\ISTREAM
C:\PROGRAM FILES (X86)\MICROSOFT VISUAL STUDIO 12.0\VC\INCLUDE\OSTREAM
C:\PROGRAM FILES (X86)\MICROSOFT VISUAL STUDIO 12.0\VC\INCLUDE\IOS
C:\PROGRAM FILES (X86)\MICROSOFT VISUAL STUDIO 12.0\VC\INCLUDE\XLOCNUM
C:\PROGRAM FILES (X86)\MICROSOFT VISUAL STUDIO 12.0\VC\INCLUDE\STREAMBUF
C:\PROGRAM FILES (X86)\MICROSOFT VISUAL STUDIO 12.0\VC\INCLUDE\XIOSBASE
C:\PROGRAM FILES (X86)\MICROSOFT VISUAL STUDIO 12.0\VC\INCLUDE\XLOCALE
C:\PROGRAM FILES (X86)\MICROSOFT VISUAL STUDIO 12.0\VC\INCLUDE\TYPEINFO
C:\PROGRAM FILES (X86)\MICROSOFT VISUAL STUDIO 12.0\VC\INCLUDE\XLOCINFO
C:\PROGRAM FILES (X86)\MICROSOFT VISUAL STUDIO 12.0\VC\INCLUDE\XLOCINFO.H
C:\PROGRAM FILES (X86)\MICROSOFT VISUAL STUDIO 12.0\VC\INCLUDE\LOCALE.H
C:\PROGRAM FILES (X86)\MICROSOFT VISUAL STUDIO 12.0\VC\INCLUDE\XDEBUG
C:\PROGRAM FILES (X86)\MICROSOFT VISUAL STUDIO 12.0\VC\INCLUDE\XFACET
C:\PROGRAM FILES (X86)\MICROSOFT VISUAL STUDIO 12.0\VC\INCLUDE\SYSTEM_ERROR
C:\PROGRAM FILES (X86)\MICROSOFT VISUAL STUDIO 12.0\VC\INCLUDE\CERRNO
C:\PROGRAM FILES (X86)\MICROSOFT VISUAL STUDIO 12.0\VC\INCLUDE\ERRNO.H
C:\PROGRAM FILES (X86)\MICROSOFT VISUAL STUDIO 12.0\VC\INCLUDE\SHARE.H
G:\DBZ\CLIENT\DBOCLIENT\NTLLIB\SERVER\NTLNETWORK\NTLCONNECTOR.H
G:\DBZ\CLIENT\DBOCLIENT\NTLLIB\SERVER\NTLNETWORK\NTLSESSION.H
G:\DBZ\CLIENT\DBOCLIENT\NTLLIB\SERVER\NTLNETWORK\NTLCONNECTION.H
G:\DBZ\CLIENT\DBOCLIENT\NTLLIB\SHARED\UTIL\NTLBITFLAG.H
G:\DBZ\CLIENT\DBOCLIENT\NTLLIB\SERVER\NTLNETWORK\NTLNETBUFFER.H
G:\DBZ\CLIENT\DBOCLIENT\NTLLIB\SERVER\NTLNETWORK\NTLPACKET.H
G:\DBZ\CLIENT\DBOCLIENT\NTLLIB\SERVER\NTLNETWORK\NTLPACKETENCODER.H
G:\DBZ\CLIENT\DBOCLIENT\NTLLIB\SERVER\NTLSYSTEM\NTLCIRCULARQUEUE.H
G:\DBZ\CLIENT\DBOCLIENT\NTLLIB\SERVER\NTLSYSTEM\NTLERROR.H
G:\DBZ\CLIENT\DBOCLIENT\NTLLIB\SERVER\NTLSYSTEM\NTLERRORCODES.H
G:\DBZ\CLIENT\DBOCLIENT\NTLLIB\SERVER\NTLSYSTEM\NTLQUEUE.H
C:\PROGRAM FILES (X86)\MICROSOFT VISUAL STUDIO 12.0\VC\INCLUDE\DEQUE
G:\DBZ\CLIENT\DBOCLIENT\NTLLIB\SERVER\NTLNETWORK\NETWORKCOMPILEOPTION.H
G:\DBZ\CLIENT\DBOCLIENT\NTLLIB\SERVER\NTLNETWORK\NTLSESSIONFACTORY.H
G:\DBZ\CLIENT\DBOCLIENT\NTLLIB\SERVER\NTLSFX\NTLSERVERAPP.H
G:\DBZ\CLIENT\DBOCLIENT\NTLLIB\SERVER\NTLTHREAD\NTLTHREAD.H
G:\DBZ\CLIENT\DBOCLIENT\NTLLIB\SERVER\NTLSYSTEM\NTLLINKLIST.H
G:\DBZ\CLIENT\DBOCLIENT\NTLLIB\SERVER\NTLTHREAD\NTLEVENT.H
C:\PROGRAM FILES (X86)\MICROSOFT VISUAL STUDIO 12.0\VC\INCLUDE\PROCESS.H
G:\DBZ\CLIENT\DBOCLIENT\NTLLIB\SERVER\NTLSYSTEM\NTLSINGLETON.H
G:\DBZ\CLIENT\DBOCLIENT\NTLLIB\SERVER\NTLSYSTEM\NTLPERFORMANCE.H
G:\DBZ\CLIENT\DBOCLIENT\NTLLIB\SERVER\NTLSYSTEM\NTLPDH.H
C:\PROGRAM FILES (X86)\WINDOWS KITS\8.1\INCLUDE\UM\PDH.H
C:\PROGRAM FILES (X86)\WINDOWS KITS\8.1\INCLUDE\UM\WINPERF.H
C:\PROGRAM FILES (X86)\WINDOWS KITS\8.1\INCLUDE\SHARED\PSHPACK8.H
C:\PROGRAM FILES (X86)\WINDOWS KITS\8.1\INCLUDE\SHARED\POPPACK.H
G:\DBZ\CLIENT\DBOCLIENT\NTLLIB\SERVER\NTLSYSTEM\NTLINIFILE.H
G:\DBZ\CLIENT\DBOCLIENT\NTLLIB\SERVER\NTLSYSTEM\NTLLOG.H
C:\PROGRAM FILES (X86)\MICROSOFT VISUAL STUDIO 12.0\VC\INCLUDE\LIST
G:\DBZ\SERVER\MASTACORE\BOTMASTER\BOTSERVER.H
G:\DBZ\SERVER\MASTACORE\BOTMASTER\CLIENTSESSION.H
G:\DBZ\CLIENT\DBOCLIENT\NTLLIB\SERVER\NTLNETWORK\NTLPACKETENCODER_RANDKEY.H
G:\DBZ\CLIENT\DBOCLIENT\NTLLIB\SERVER\NTLSYSTEM\NTLRANDOMGENERATOR.H
G:\DBZ\CLIENT\DBOCLIENT\DBOSHARED\NTLSHARED2\NTLPACKETBABM.H
G:\DBZ\CLIENT\DBOCLIENT\DBOSHARED\NTLSHARED2\NTLPACKETCOMMON.H
G:\DBZ\CLIENT\DBOCLIENT\DBOSHARED\NTLSHARED2\NTLSHAREDTYPE.H
G:\DBZ\CLIENT\DBOCLIENT\DBOSHARED\NTLSHARED2\NTLSHAREDDEF.H
G:\DBZ\CLIENT\DBOCLIENT\DBOSHARED\NTLSHARED2\NTLPACKETBMBA.H
G:\DBZ\CLIENT\DBOCLIENT\DBOSHARED\NTLSHARED2\NTLSHAREDBOTSYSTEMDEF.H
G:\DBZ\CLIENT\DBOCLIENT\DBOSHARED\NTLSHARED2\NTLPACKETBCBM.H
G:\DBZ\CLIENT\DBOCLIENT\DBOSHARED\NTLSHARED2\NTLPACKETBMBC.H
G:\DBZ\CLIENT\DBOCLIENT\DBOSHARED\NTLSHARED2\NTLPACKETUTIL.H
C:\PROGRAM FILES (X86)\MICROSOFT VISUAL STUDIO 12.0\VC\INCLUDE\IOSTREAM
G:\DBZ\SERVER\MASTACORE\BOTMASTER\BOTSESSIONFACTORY.H
G:\DBZ\CLIENT\DBOCLIENT\NTLLIB\SERVER\NTLSYSTEM\NTLFILE.H
C:\PROGRAM FILES (X86)\MICROSOFT VISUAL STUDIO 12.0\VC\INCLUDE\IO.H
C:\PROGRAM FILES (X86)\MICROSOFT VISUAL STUDIO 12.0\VC\INCLUDE\FCNTL.H
C:\PROGRAM FILES (X86)\MICROSOFT VISUAL STUDIO 12.0\VC\INCLUDE\SYS\STAT.H
C:\PROGRAM FILES (X86)\MICROSOFT VISUAL STUDIO 12.0\VC\INCLUDE\SYS\TYPES.H
C:\PROGRAM FILES (X86)\MICROSOFT VISUAL STUDIO 12.0\VC\INCLUDE\SYS\STAT.INL
G:\DBZ\CLIENT\DBOCLIENT\NTLLIB\SERVER\NTLNETWORK\BOTSYSTEMLOG_SERVER.H
C:\PROGRAM FILES (X86)\MICROSOFT VISUAL STUDIO 12.0\VC\INCLUDE\FSTREAM
C:\PROGRAM FILES (X86)\MICROSOFT VISUAL STUDIO 12.0\VC\BIN\1033\CLUI.DLL
C:\WINDOWS\GLOBALIZATION\SORTING\SORTDEFAULT.NLS
C:\WINDOWS\SYSTEM32\RSAENH.DLL
C:\WINDOWS\SYSTEM32\TZRES.DLL
