^G:\DBZ\SERVER\MASTACORE\BOTMASTER\STDAFX.CPP
/c /IG:\dbz\server\MastaCore\..\..\client\dboclient\NtlLib\Shared\Util /IG:\dbz\server\MastaCore\..\..\client\dboclient\NtlLib\Server\NtlNetwork /IG:\dbz\server\MastaCore\..\..\client\dboclient\NtlLib\Server\NtlSfx /IG:\dbz\server\MastaCore\..\..\client\dboclient\NtlLib\Server\NtlSystem /IG:\dbz\server\MastaCore\..\..\client\dboclient\NtlLib\Server\NtlThread /IG:\dbz\server\MastaCore\..\..\client\dboclient\DboShared\NtlShared2 /IG:\dbz\server\MastaCore\..\..\client\dboclient\NtlLib\Shared\ /ZI /nologo /W3 /WX- /sdl /Od /Oy- /D WIN32 /D _DEBUG /D _CONSOLE /D _LIB /D _WINSOCK_DEPRECATED_NO_WARNINGS /D _MBCS /Gm /EHsc /RTC1 /MTd /GS /fp:precise /Zc:wchar_t /Zc:forScope /Yc"stdafx.h" /Fp"DEBUG\BOTMASTER.PCH" /Fo"DEBUG\\" /Fd"DEBUG\VC120.PDB" /Gd /TP /analyze- G:\DBZ\SERVER\MASTACORE\BOTMASTER\STDAFX.CPP
^G:\DBZ\SERVER\MASTACORE\BOTMASTER\BOTMASTER.CPP
/c /IG:\dbz\server\MastaCore\..\..\client\dboclient\NtlLib\Shared\Util /IG:\dbz\server\MastaCore\..\..\client\dboclient\NtlLib\Server\NtlNetwork /IG:\dbz\server\MastaCore\..\..\client\dboclient\NtlLib\Server\NtlSfx /IG:\dbz\server\MastaCore\..\..\client\dboclient\NtlLib\Server\NtlSystem /IG:\dbz\server\MastaCore\..\..\client\dboclient\NtlLib\Server\NtlThread /IG:\dbz\server\MastaCore\..\..\client\dboclient\DboShared\NtlShared2 /IG:\dbz\server\MastaCore\..\..\client\dboclient\NtlLib\Shared\ /ZI /nologo /W3 /WX- /sdl /Od /Oy- /D WIN32 /D _DEBUG /D _CONSOLE /D _LIB /D _WINSOCK_DEPRECATED_NO_WARNINGS /D _MBCS /Gm /EHsc /RTC1 /MTd /GS /fp:precise /Zc:wchar_t /Zc:forScope /Yu"stdafx.h" /Fp"DEBUG\BOTMASTER.PCH" /Fo"DEBUG\\" /Fd"DEBUG\VC120.PDB" /Gd /TP /analyze- G:\DBZ\SERVER\MASTACORE\BOTMASTER\BOTMASTER.CPP
^G:\DBZ\SERVER\MASTACORE\BOTMASTER\BOTSERVER.CPP
/c /IG:\dbz\server\MastaCore\..\..\client\dboclient\NtlLib\Shared\Util /IG:\dbz\server\MastaCore\..\..\client\dboclient\NtlLib\Server\NtlNetwork /IG:\dbz\server\MastaCore\..\..\client\dboclient\NtlLib\Server\NtlSfx /IG:\dbz\server\MastaCore\..\..\client\dboclient\NtlLib\Server\NtlSystem /IG:\dbz\server\MastaCore\..\..\client\dboclient\NtlLib\Server\NtlThread /IG:\dbz\server\MastaCore\..\..\client\dboclient\DboShared\NtlShared2 /IG:\dbz\server\MastaCore\..\..\client\dboclient\NtlLib\Shared\ /ZI /nologo /W3 /WX- /sdl /Od /Oy- /D WIN32 /D _DEBUG /D _CONSOLE /D _LIB /D _WINSOCK_DEPRECATED_NO_WARNINGS /D _MBCS /Gm /EHsc /RTC1 /MTd /GS /fp:precise /Zc:wchar_t /Zc:forScope /Yu"stdafx.h" /Fp"DEBUG\BOTMASTER.PCH" /Fo"DEBUG\\" /Fd"DEBUG\VC120.PDB" /Gd /TP /analyze- G:\DBZ\SERVER\MASTACORE\BOTMASTER\BOTSERVER.CPP
^G:\DBZ\SERVER\MASTACORE\BOTMASTER\BOTSESSIONFACTORY.CPP
/c /IG:\dbz\server\MastaCore\..\..\client\dboclient\NtlLib\Shared\Util /IG:\dbz\server\MastaCore\..\..\client\dboclient\NtlLib\Server\NtlNetwork /IG:\dbz\server\MastaCore\..\..\client\dboclient\NtlLib\Server\NtlSfx /IG:\dbz\server\MastaCore\..\..\client\dboclient\NtlLib\Server\NtlSystem /IG:\dbz\server\MastaCore\..\..\client\dboclient\NtlLib\Server\NtlThread /IG:\dbz\server\MastaCore\..\..\client\dboclient\DboShared\NtlShared2 /IG:\dbz\server\MastaCore\..\..\client\dboclient\NtlLib\Shared\ /ZI /nologo /W3 /WX- /sdl /Od /Oy- /D WIN32 /D _DEBUG /D _CONSOLE /D _LIB /D _WINSOCK_DEPRECATED_NO_WARNINGS /D _MBCS /Gm /EHsc /RTC1 /MTd /GS /fp:precise /Zc:wchar_t /Zc:forScope /Yu"stdafx.h" /Fp"DEBUG\BOTMASTER.PCH" /Fo"DEBUG\\" /Fd"DEBUG\VC120.PDB" /Gd /TP /analyze- G:\DBZ\SERVER\MASTACORE\BOTMASTER\BOTSESSIONFACTORY.CPP
^G:\DBZ\SERVER\MASTACORE\BOTMASTER\CLIENTSESSION.CPP
/c /IG:\dbz\server\MastaCore\..\..\client\dboclient\NtlLib\Shared\Util /IG:\dbz\server\MastaCore\..\..\client\dboclient\NtlLib\Server\NtlNetwork /IG:\dbz\server\MastaCore\..\..\client\dboclient\NtlLib\Server\NtlSfx /IG:\dbz\server\MastaCore\..\..\client\dboclient\NtlLib\Server\NtlSystem /IG:\dbz\server\MastaCore\..\..\client\dboclient\NtlLib\Server\NtlThread /IG:\dbz\server\MastaCore\..\..\client\dboclient\DboShared\NtlShared2 /IG:\dbz\server\MastaCore\..\..\client\dboclient\NtlLib\Shared\ /ZI /nologo /W3 /WX- /sdl /Od /Oy- /D WIN32 /D _DEBUG /D _CONSOLE /D _LIB /D _WINSOCK_DEPRECATED_NO_WARNINGS /D _MBCS /Gm /EHsc /RTC1 /MTd /GS /fp:precise /Zc:wchar_t /Zc:forScope /Yu"stdafx.h" /Fp"DEBUG\BOTMASTER.PCH" /Fo"DEBUG\\" /Fd"DEBUG\VC120.PDB" /Gd /TP /analyze- G:\DBZ\SERVER\MASTACORE\BOTMASTER\CLIENTSESSION.CPP
