﻿Build started 08/01/2016 13:26:01.
     1>Project "G:\dbz\server\MastaCore\BotMaster\BotMaster.vcxproj" on node 2 (Build target(s)).
     1>Link:
         C:\Program Files (x86)\Microsoft Visual Studio 12.0\VC\bin\link.exe /ERRORREPORT:PROMPT /OUT:"G:\dbz\server\MastaCore\Debug\BotMaster.exe" /INCREMENTAL /NOLOGO Ws2_32.lib kernel32.lib user32.lib gdi32.lib winspool.lib comdlg32.lib advapi32.lib shell32.lib ole32.lib oleaut32.lib uuid.lib odbc32.lib odbccp32.lib /MANIFEST /MANIFESTUAC:"level='asInvoker' uiAccess='false'" /manifest:embed /DEBUG /PDB:"G:\dbz\server\MastaCore\Debug\BotMaster.pdb" /SUBSYSTEM:CONSOLE /TLBID:1 /DYNAMICBASE /NXCOMPAT /IMPLIB:"G:\dbz\server\MastaCore\Debug\BotMaster.lib" /MACHINE:X86 Debug\BotMaster.obj
         Debug\BotServer.obj
         Debug\BotSessionFactory.obj
         Debug\ClientSession.obj
         Debug\stdafx.obj
         G:\dbz\client\dboclient\DboShared\NtlShared2\Debug\NtlShared.lib
         G:\dbz\client\dboclient\NtlLib\Server\NtlSystem\Debug\NtlSystem.lib
         G:\dbz\client\dboclient\NtlLib\Server\NtlThread\Debug\NtlThread.lib
         G:\dbz\client\dboclient\NtlLib\Server\NtlNetwork\Debug\NtlNetwork.lib
         G:\dbz\client\dboclient\NtlLib\Server\NtlSfx\Debug\NtlSfx.lib
         G:\dbz\client\dboclient\NtlLib\Shared\Util\Debug\Util.lib
         BotMaster.vcxproj -> G:\dbz\server\MastaCore\Debug\BotMaster.exe
     1>Done Building Project "G:\dbz\server\MastaCore\BotMaster\BotMaster.vcxproj" (Build target(s)).

Build succeeded.

Time Elapsed 00:00:09.41
